EESchema Schematic File Version 4
LIBS:bq24002_bcr_eval-cache
EELAYER 29 0
EELAYER END
$Descr A4 11693 8268
encoding utf-8
Sheet 1 1
Title ""
Date ""
Rev ""
Comp ""
Comment1 ""
Comment2 ""
Comment3 ""
Comment4 ""
$EndDescr
$Comp
L pcdu-cache:pcdu-rescue_bq24002-mylib U?
U 1 1 59824991
P 4050 2700
AR Path="/59811E48/59824991" Ref="U?"  Part="1" 
AR Path="/598129F4/59824991" Ref="U?"  Part="1" 
AR Path="/59824991" Ref="U?"  Part="1" 
F 0 "U?" H 4050 2950 50  0000 C CNN
F 1 "bq24002" H 3800 1650 50  0000 C CNN
F 2 "" H 4050 3050 60  0000 C CNN
F 3 "" H 4050 3050 60  0000 C CNN
	1    4050 2700
	1    0    0    -1  
$EndComp
$Comp
L Device:R R?
U 1 1 59824A80
P 2550 2000
AR Path="/59811E48/59824A80" Ref="R?"  Part="1" 
AR Path="/598129F4/59824A80" Ref="R?"  Part="1" 
AR Path="/59824A80" Ref="R?"  Part="1" 
F 0 "R?" V 2630 2000 50  0000 C CNN
F 1 "0.1" V 2550 2000 50  0000 C CNN
F 2 "" V 2480 2000 50  0000 C CNN
F 3 "" H 2550 2000 50  0000 C CNN
	1    2550 2000
	0    1    1    0   
$EndComp
Wire Wire Line
	3050 2600 3300 2600
Wire Wire Line
	3050 2000 3050 2200
Wire Wire Line
	3300 2200 3050 2200
Connection ~ 3050 2200
Connection ~ 3050 2000
Wire Wire Line
	2200 2000 2200 2400
Connection ~ 2200 2000
$Comp
L Device:C C?
U 1 1 59824B62
P 1900 2150
AR Path="/59811E48/59824B62" Ref="C?"  Part="1" 
AR Path="/598129F4/59824B62" Ref="C?"  Part="1" 
AR Path="/59824B62" Ref="C?"  Part="1" 
F 0 "C?" H 1925 2250 50  0000 L CNN
F 1 "10uF" H 1925 2050 50  0000 L CNN
F 2 "" H 1938 2000 50  0000 C CNN
F 3 "" H 1900 2150 50  0000 C CNN
	1    1900 2150
	1    0    0    -1  
$EndComp
Connection ~ 2200 2400
$Comp
L Device:R R?
U 1 1 59824BAF
P 2500 2550
AR Path="/59811E48/59824BAF" Ref="R?"  Part="1" 
AR Path="/598129F4/59824BAF" Ref="R?"  Part="1" 
AR Path="/59824BAF" Ref="R?"  Part="1" 
F 0 "R?" V 2580 2550 50  0000 C CNN
F 1 "309k" V 2500 2550 50  0000 C CNN
F 2 "" V 2430 2550 50  0000 C CNN
F 3 "" H 2500 2550 50  0000 C CNN
	1    2500 2550
	1    0    0    -1  
$EndComp
$Comp
L Device:R R?
U 1 1 59824C0C
P 2500 2850
AR Path="/59811E48/59824C0C" Ref="R?"  Part="1" 
AR Path="/598129F4/59824C0C" Ref="R?"  Part="1" 
AR Path="/59824C0C" Ref="R?"  Part="1" 
F 0 "R?" V 2580 2850 50  0000 C CNN
F 1 "110k" V 2500 2850 50  0000 C CNN
F 2 "" V 2430 2850 50  0000 C CNN
F 3 "" H 2500 2850 50  0000 C CNN
	1    2500 2850
	1    0    0    -1  
$EndComp
$Comp
L power:GND #PWR?
U 1 1 59824C37
P 2500 3000
AR Path="/59811E48/59824C37" Ref="#PWR?"  Part="1" 
AR Path="/598129F4/59824C37" Ref="#PWR?"  Part="1" 
AR Path="/59824C37" Ref="#PWR?"  Part="1" 
F 0 "#PWR?" H 2500 2750 50  0001 C CNN
F 1 "GND" H 2500 2850 50  0000 C CNN
F 2 "" H 2500 3000 50  0000 C CNN
F 3 "" H 2500 3000 50  0000 C CNN
	1    2500 3000
	1    0    0    -1  
$EndComp
Wire Wire Line
	2500 2700 2750 2700
Wire Wire Line
	2750 2700 2750 3000
Wire Wire Line
	2750 3000 3300 3000
$Comp
L power:GND #PWR?
U 1 1 59824CF1
P 3300 3600
AR Path="/59811E48/59824CF1" Ref="#PWR?"  Part="1" 
AR Path="/598129F4/59824CF1" Ref="#PWR?"  Part="1" 
AR Path="/59824CF1" Ref="#PWR?"  Part="1" 
F 0 "#PWR?" H 3300 3350 50  0001 C CNN
F 1 "GND" H 3300 3450 50  0000 C CNN
F 2 "" H 3300 3600 50  0000 C CNN
F 3 "" H 3300 3600 50  0000 C CNN
	1    3300 3600
	1    0    0    -1  
$EndComp
$Comp
L Device:R R?
U 1 1 59824D08
P 2750 3350
AR Path="/59811E48/59824D08" Ref="R?"  Part="1" 
AR Path="/598129F4/59824D08" Ref="R?"  Part="1" 
AR Path="/59824D08" Ref="R?"  Part="1" 
F 0 "R?" V 2830 3350 50  0000 C CNN
F 1 "0" V 2750 3350 50  0000 C CNN
F 2 "" V 2680 3350 50  0000 C CNN
F 3 "" H 2750 3350 50  0000 C CNN
	1    2750 3350
	1    0    0    -1  
$EndComp
$Comp
L Device:R R?
U 1 1 59824D75
P 2750 3650
AR Path="/59811E48/59824D75" Ref="R?"  Part="1" 
AR Path="/598129F4/59824D75" Ref="R?"  Part="1" 
AR Path="/59824D75" Ref="R?"  Part="1" 
F 0 "R?" V 2830 3650 50  0000 C CNN
F 1 "0" V 2750 3650 50  0000 C CNN
F 2 "" V 2680 3650 50  0000 C CNN
F 3 "" H 2750 3650 50  0000 C CNN
	1    2750 3650
	1    0    0    -1  
$EndComp
$Comp
L power:GND #PWR?
U 1 1 59824DAB
P 2750 3800
AR Path="/59811E48/59824DAB" Ref="#PWR?"  Part="1" 
AR Path="/598129F4/59824DAB" Ref="#PWR?"  Part="1" 
AR Path="/59824DAB" Ref="#PWR?"  Part="1" 
F 0 "#PWR?" H 2750 3550 50  0001 C CNN
F 1 "GND" H 2750 3650 50  0000 C CNN
F 2 "" H 2750 3800 50  0000 C CNN
F 3 "" H 2750 3800 50  0000 C CNN
	1    2750 3800
	1    0    0    -1  
$EndComp
Wire Wire Line
	2750 3500 3000 3500
Wire Wire Line
	3000 3500 3000 3400
Wire Wire Line
	3000 3400 3300 3400
Text Notes 2450 3400 0    60   ~ 0
4.2V
Text Notes 2450 3700 0    60   ~ 0
4.1V
Text Notes 1800 3550 0    60   ~ 0
Select EOC voltage
$Comp
L Device:C C?
U 1 1 59824FDC
P 5550 2150
AR Path="/59811E48/59824FDC" Ref="C?"  Part="1" 
AR Path="/598129F4/59824FDC" Ref="C?"  Part="1" 
AR Path="/59824FDC" Ref="C?"  Part="1" 
F 0 "C?" H 5575 2250 50  0000 L CNN
F 1 "10uF" H 5575 2050 50  0000 L CNN
F 2 "" H 5588 2000 50  0000 C CNN
F 3 "" H 5550 2150 50  0000 C CNN
	1    5550 2150
	1    0    0    -1  
$EndComp
Wire Wire Line
	4800 2000 5050 2000
Wire Wire Line
	4800 2200 5050 2200
Wire Wire Line
	5050 2000 5050 2200
Connection ~ 5050 2000
Wire Wire Line
	5050 2400 4800 2400
Connection ~ 5050 2200
$Comp
L power:GND #PWR?
U 1 1 5982507D
P 5550 2300
AR Path="/59811E48/5982507D" Ref="#PWR?"  Part="1" 
AR Path="/598129F4/5982507D" Ref="#PWR?"  Part="1" 
AR Path="/5982507D" Ref="#PWR?"  Part="1" 
F 0 "#PWR?" H 5550 2050 50  0001 C CNN
F 1 "GND" H 5550 2150 50  0000 C CNN
F 2 "" H 5550 2300 50  0000 C CNN
F 3 "" H 5550 2300 50  0000 C CNN
	1    5550 2300
	1    0    0    -1  
$EndComp
$Comp
L power:GND #PWR?
U 1 1 598250C5
P 4800 2600
AR Path="/59811E48/598250C5" Ref="#PWR?"  Part="1" 
AR Path="/598129F4/598250C5" Ref="#PWR?"  Part="1" 
AR Path="/598250C5" Ref="#PWR?"  Part="1" 
F 0 "#PWR?" H 4800 2350 50  0001 C CNN
F 1 "GND" H 4800 2450 50  0000 C CNN
F 2 "" H 4800 2600 50  0000 C CNN
F 3 "" H 4800 2600 50  0000 C CNN
	1    4800 2600
	1    0    0    -1  
$EndComp
$Comp
L Device:C C?
U 1 1 598250E9
P 5050 3550
AR Path="/59811E48/598250E9" Ref="C?"  Part="1" 
AR Path="/598129F4/598250E9" Ref="C?"  Part="1" 
AR Path="/598250E9" Ref="C?"  Part="1" 
F 0 "C?" H 5075 3650 50  0000 L CNN
F 1 "0.22uF" H 5075 3450 50  0000 L CNN
F 2 "" H 5088 3400 50  0000 C CNN
F 3 "" H 5050 3550 50  0000 C CNN
	1    5050 3550
	1    0    0    -1  
$EndComp
$Comp
L Device:C C?
U 1 1 59825118
P 5400 3550
AR Path="/59811E48/59825118" Ref="C?"  Part="1" 
AR Path="/598129F4/59825118" Ref="C?"  Part="1" 
AR Path="/59825118" Ref="C?"  Part="1" 
F 0 "C?" H 5425 3650 50  0000 L CNN
F 1 "10pf" H 5425 3450 50  0000 L CNN
F 2 "" H 5438 3400 50  0000 C CNN
F 3 "" H 5400 3550 50  0000 C CNN
	1    5400 3550
	1    0    0    -1  
$EndComp
Wire Wire Line
	4800 3400 5050 3400
Wire Wire Line
	4800 3200 5400 3200
$Comp
L power:GND #PWR?
U 1 1 59825190
P 5050 3700
AR Path="/59811E48/59825190" Ref="#PWR?"  Part="1" 
AR Path="/598129F4/59825190" Ref="#PWR?"  Part="1" 
AR Path="/59825190" Ref="#PWR?"  Part="1" 
F 0 "#PWR?" H 5050 3450 50  0001 C CNN
F 1 "GND" H 5050 3550 50  0000 C CNN
F 2 "" H 5050 3700 50  0000 C CNN
F 3 "" H 5050 3700 50  0000 C CNN
	1    5050 3700
	1    0    0    -1  
$EndComp
$Comp
L power:GND #PWR?
U 1 1 598251B8
P 5400 3700
AR Path="/59811E48/598251B8" Ref="#PWR?"  Part="1" 
AR Path="/598129F4/598251B8" Ref="#PWR?"  Part="1" 
AR Path="/598251B8" Ref="#PWR?"  Part="1" 
F 0 "#PWR?" H 5400 3450 50  0001 C CNN
F 1 "GND" H 5400 3550 50  0000 C CNN
F 2 "" H 5400 3700 50  0000 C CNN
F 3 "" H 5400 3700 50  0000 C CNN
	1    5400 3700
	1    0    0    -1  
$EndComp
Wire Wire Line
	5400 3200 5400 3400
$Comp
L Device:LED D?
U 1 1 598252C5
P 5800 3000
AR Path="/59811E48/598252C5" Ref="D?"  Part="1" 
AR Path="/598129F4/598252C5" Ref="D?"  Part="1" 
AR Path="/598252C5" Ref="D?"  Part="1" 
F 0 "D?" H 5800 3100 50  0000 C CNN
F 1 "LED" H 5800 2900 50  0000 C CNN
F 2 "" H 5800 3000 50  0000 C CNN
F 3 "" H 5800 3000 50  0000 C CNN
	1    5800 3000
	1    0    0    -1  
$EndComp
$Comp
L Device:LED D?
U 1 1 59825380
P 5800 2800
AR Path="/59811E48/59825380" Ref="D?"  Part="1" 
AR Path="/598129F4/59825380" Ref="D?"  Part="1" 
AR Path="/59825380" Ref="D?"  Part="1" 
F 0 "D?" H 5800 2900 50  0000 C CNN
F 1 "LED" H 5800 2700 50  0000 C CNN
F 2 "" H 5800 2800 50  0000 C CNN
F 3 "" H 5800 2800 50  0000 C CNN
	1    5800 2800
	1    0    0    -1  
$EndComp
$Comp
L Device:R R?
U 1 1 5982540D
P 6100 2800
AR Path="/59811E48/5982540D" Ref="R?"  Part="1" 
AR Path="/598129F4/5982540D" Ref="R?"  Part="1" 
AR Path="/5982540D" Ref="R?"  Part="1" 
F 0 "R?" V 6180 2800 50  0000 C CNN
F 1 "1.5k" V 6100 2800 50  0000 C CNN
F 2 "" V 6030 2800 50  0000 C CNN
F 3 "" H 6100 2800 50  0000 C CNN
	1    6100 2800
	0    1    1    0   
$EndComp
$Comp
L Device:R R?
U 1 1 59825459
P 6100 3000
AR Path="/59811E48/59825459" Ref="R?"  Part="1" 
AR Path="/598129F4/59825459" Ref="R?"  Part="1" 
AR Path="/59825459" Ref="R?"  Part="1" 
F 0 "R?" V 6180 3000 50  0000 C CNN
F 1 "1.5k" V 6100 3000 50  0000 C CNN
F 2 "" V 6030 3000 50  0000 C CNN
F 3 "" H 6100 3000 50  0000 C CNN
	1    6100 3000
	0    1    1    0   
$EndComp
Wire Wire Line
	2200 4100 6250 4100
Connection ~ 2200 3200
$Comp
L power:GND #PWR?
U 1 1 598259AE
P 1900 2300
AR Path="/59811E48/598259AE" Ref="#PWR?"  Part="1" 
AR Path="/598129F4/598259AE" Ref="#PWR?"  Part="1" 
AR Path="/598259AE" Ref="#PWR?"  Part="1" 
F 0 "#PWR?" H 1900 2050 50  0001 C CNN
F 1 "GND" H 1900 2150 50  0000 C CNN
F 2 "" H 1900 2300 50  0000 C CNN
F 3 "" H 1900 2300 50  0000 C CNN
	1    1900 2300
	1    0    0    -1  
$EndComp
Text Notes 6350 2800 0    60   ~ 0
Charging 90% complete
Text Notes 6350 3000 0    60   ~ 0
Battery charging
$Comp
L power:PWR_FLAG #FLG?
U 1 1 5985FE50
P 2900 2000
AR Path="/59811E48/5985FE50" Ref="#FLG?"  Part="1" 
AR Path="/598129F4/5985FE50" Ref="#FLG?"  Part="1" 
AR Path="/5985FE50" Ref="#FLG?"  Part="1" 
F 0 "#FLG?" H 2900 2095 50  0001 C CNN
F 1 "PWR_FLAG" H 2900 2180 50  0000 C CNN
F 2 "" H 2900 2000 50  0000 C CNN
F 3 "" H 2900 2000 50  0000 C CNN
	1    2900 2000
	1    0    0    -1  
$EndComp
Wire Wire Line
	3050 2200 3050 2600
Wire Wire Line
	3050 2000 3300 2000
Wire Wire Line
	2200 2000 2400 2000
Wire Wire Line
	2200 2400 2200 3200
Wire Wire Line
	5050 2200 5050 2400
Wire Wire Line
	2200 3200 2200 4100
Wire Wire Line
	2700 2000 2900 2000
Wire Wire Line
	2200 2400 2500 2400
Wire Wire Line
	2200 3200 2750 3200
Wire Wire Line
	6250 2800 6250 3000
Wire Wire Line
	5050 2000 5550 2000
Wire Wire Line
	4800 3000 5650 3000
Wire Wire Line
	4800 2800 5650 2800
Wire Wire Line
	1900 2000 2200 2000
Connection ~ 2500 2400
Wire Wire Line
	2500 2400 3300 2400
Connection ~ 2500 2700
Connection ~ 2750 3200
Wire Wire Line
	2750 3200 3300 3200
Connection ~ 2750 3500
Connection ~ 2900 2000
Wire Wire Line
	2900 2000 3050 2000
Connection ~ 6250 3000
Wire Wire Line
	6250 3000 6250 4100
$Comp
L Amplifier_Current:INA195 U?
U 1 1 5D13A713
P 2150 1250
F 0 "U?" H 2494 1296 50  0000 L CNN
F 1 "INA195" H 2494 1205 50  0000 L CNN
F 2 "Package_TO_SOT_SMD:SOT-23-5" H 2150 1250 50  0001 C CNN
F 3 "http://www.ti.com/lit/ds/symlink/ina193.pdf" H 2150 1250 50  0001 C CNN
	1    2150 1250
	1    0    0    -1  
$EndComp
$Comp
L Device:R R?
U 1 1 5D13D672
P 1600 2000
F 0 "R?" V 1807 2000 50  0000 C CNN
F 1 "33m" V 1716 2000 50  0000 C CNN
F 2 "" V 1530 2000 50  0001 C CNN
F 3 "~" H 1600 2000 50  0001 C CNN
	1    1600 2000
	0    -1   -1   0   
$EndComp
$Comp
L power:GND #PWR?
U 1 1 5D13F85E
P 2050 1550
F 0 "#PWR?" H 2050 1300 50  0001 C CNN
F 1 "GND" H 2055 1377 50  0000 C CNN
F 2 "" H 2050 1550 50  0001 C CNN
F 3 "" H 2050 1550 50  0001 C CNN
	1    2050 1550
	1    0    0    -1  
$EndComp
$Comp
L power:VCC #PWR?
U 1 1 5D13FEF4
P 2050 950
F 0 "#PWR?" H 2050 800 50  0001 C CNN
F 1 "VCC" H 2067 1123 50  0000 C CNN
F 2 "" H 2050 950 50  0001 C CNN
F 3 "" H 2050 950 50  0001 C CNN
	1    2050 950 
	1    0    0    -1  
$EndComp
Wire Wire Line
	1850 1350 1750 1350
Wire Wire Line
	1750 1350 1750 2000
Wire Wire Line
	1850 1150 1450 1150
Wire Wire Line
	1450 1150 1450 2000
Wire Wire Line
	2850 1250 2450 1250
$Comp
L Amplifier_Current:INA195 U?
U 1 1 5D146A83
P 6450 1250
F 0 "U?" H 6794 1296 50  0000 L CNN
F 1 "INA195" H 6794 1205 50  0000 L CNN
F 2 "Package_TO_SOT_SMD:SOT-23-5" H 6450 1250 50  0001 C CNN
F 3 "http://www.ti.com/lit/ds/symlink/ina193.pdf" H 6450 1250 50  0001 C CNN
	1    6450 1250
	1    0    0    -1  
$EndComp
$Comp
L Device:R R?
U 1 1 5D146A8D
P 5900 2000
F 0 "R?" V 6107 2000 50  0000 C CNN
F 1 "33m" V 6016 2000 50  0000 C CNN
F 2 "" V 5830 2000 50  0001 C CNN
F 3 "~" H 5900 2000 50  0001 C CNN
	1    5900 2000
	0    -1   -1   0   
$EndComp
$Comp
L power:GND #PWR?
U 1 1 5D146A97
P 6350 1550
F 0 "#PWR?" H 6350 1300 50  0001 C CNN
F 1 "GND" H 6355 1377 50  0000 C CNN
F 2 "" H 6350 1550 50  0001 C CNN
F 3 "" H 6350 1550 50  0001 C CNN
	1    6350 1550
	1    0    0    -1  
$EndComp
$Comp
L power:VCC #PWR?
U 1 1 5D146AA1
P 6350 950
F 0 "#PWR?" H 6350 800 50  0001 C CNN
F 1 "VCC" H 6367 1123 50  0000 C CNN
F 2 "" H 6350 950 50  0001 C CNN
F 3 "" H 6350 950 50  0001 C CNN
	1    6350 950 
	1    0    0    -1  
$EndComp
Wire Wire Line
	6150 1350 6050 1350
Wire Wire Line
	6050 1350 6050 2000
Wire Wire Line
	6150 1150 5750 1150
Wire Wire Line
	5750 1150 5750 2000
Wire Wire Line
	7150 1250 6750 1250
Wire Wire Line
	1750 2000 1900 2000
Connection ~ 1750 2000
Connection ~ 1900 2000
Wire Wire Line
	1000 2000 1450 2000
Connection ~ 1450 2000
Wire Wire Line
	5550 2000 5750 2000
Connection ~ 5550 2000
Connection ~ 5750 2000
Wire Wire Line
	7150 2000 6050 2000
Connection ~ 6050 2000
$Comp
L Connector:Conn_01x06_Male J?
U 1 1 5D15B0DF
P 10200 1300
F 0 "J?" H 10172 1182 50  0000 R CNN
F 1 "Conn_01x06_Male" H 10172 1273 50  0000 R CNN
F 2 "" H 10200 1300 50  0001 C CNN
F 3 "~" H 10200 1300 50  0001 C CNN
	1    10200 1300
	-1   0    0    1   
$EndComp
$Comp
L Connector:Conn_01x06_Male J?
U 1 1 5D15DBC9
P 10200 2050
F 0 "J?" H 10172 1932 50  0000 R CNN
F 1 "Conn_01x06_Male" H 10172 2023 50  0000 R CNN
F 2 "" H 10200 2050 50  0001 C CNN
F 3 "~" H 10200 2050 50  0001 C CNN
	1    10200 2050
	-1   0    0    1   
$EndComp
$Comp
L Connector:Conn_01x02_Male J?
U 1 1 5D15F118
P 10200 2600
F 0 "J?" H 10172 2482 50  0000 R CNN
F 1 "Conn_01x02_Male" H 10172 2573 50  0000 R CNN
F 2 "" H 10200 2600 50  0001 C CNN
F 3 "~" H 10200 2600 50  0001 C CNN
	1    10200 2600
	-1   0    0    1   
$EndComp
$Comp
L Connector:Conn_01x04_Male J?
U 1 1 5D164448
P 10200 3100
F 0 "J?" H 10172 2982 50  0000 R CNN
F 1 "Conn_01x04_Male" H 10172 3073 50  0000 R CNN
F 2 "" H 10200 3100 50  0001 C CNN
F 3 "~" H 10200 3100 50  0001 C CNN
	1    10200 3100
	-1   0    0    1   
$EndComp
$Comp
L pcdu-cache:pcdu-rescue_bq24002-mylib U?
U 1 1 5D1655C7
P 4050 6200
AR Path="/59811E48/5D1655C7" Ref="U?"  Part="1" 
AR Path="/598129F4/5D1655C7" Ref="U?"  Part="1" 
AR Path="/5D1655C7" Ref="U?"  Part="1" 
F 0 "U?" H 4050 6450 50  0000 C CNN
F 1 "bq24002" H 3800 5150 50  0000 C CNN
F 2 "" H 4050 6550 60  0000 C CNN
F 3 "" H 4050 6550 60  0000 C CNN
	1    4050 6200
	1    0    0    -1  
$EndComp
$Comp
L Device:R R?
U 1 1 5D1655D1
P 2550 5500
AR Path="/59811E48/5D1655D1" Ref="R?"  Part="1" 
AR Path="/598129F4/5D1655D1" Ref="R?"  Part="1" 
AR Path="/5D1655D1" Ref="R?"  Part="1" 
F 0 "R?" V 2630 5500 50  0000 C CNN
F 1 "0.1" V 2550 5500 50  0000 C CNN
F 2 "" V 2480 5500 50  0000 C CNN
F 3 "" H 2550 5500 50  0000 C CNN
	1    2550 5500
	0    1    1    0   
$EndComp
Wire Wire Line
	3050 6100 3300 6100
Wire Wire Line
	3050 5500 3050 5700
Wire Wire Line
	3300 5700 3050 5700
Connection ~ 3050 5700
Connection ~ 3050 5500
Wire Wire Line
	2200 5500 2200 5900
Connection ~ 2200 5500
$Comp
L Device:C C?
U 1 1 5D1655E2
P 1900 5650
AR Path="/59811E48/5D1655E2" Ref="C?"  Part="1" 
AR Path="/598129F4/5D1655E2" Ref="C?"  Part="1" 
AR Path="/5D1655E2" Ref="C?"  Part="1" 
F 0 "C?" H 1925 5750 50  0000 L CNN
F 1 "10uF" H 1925 5550 50  0000 L CNN
F 2 "" H 1938 5500 50  0000 C CNN
F 3 "" H 1900 5650 50  0000 C CNN
	1    1900 5650
	1    0    0    -1  
$EndComp
Connection ~ 2200 5900
$Comp
L Device:R R?
U 1 1 5D1655ED
P 2500 6050
AR Path="/59811E48/5D1655ED" Ref="R?"  Part="1" 
AR Path="/598129F4/5D1655ED" Ref="R?"  Part="1" 
AR Path="/5D1655ED" Ref="R?"  Part="1" 
F 0 "R?" V 2580 6050 50  0000 C CNN
F 1 "309k" V 2500 6050 50  0000 C CNN
F 2 "" V 2430 6050 50  0000 C CNN
F 3 "" H 2500 6050 50  0000 C CNN
	1    2500 6050
	1    0    0    -1  
$EndComp
$Comp
L Device:R R?
U 1 1 5D1655F7
P 2500 6350
AR Path="/59811E48/5D1655F7" Ref="R?"  Part="1" 
AR Path="/598129F4/5D1655F7" Ref="R?"  Part="1" 
AR Path="/5D1655F7" Ref="R?"  Part="1" 
F 0 "R?" V 2580 6350 50  0000 C CNN
F 1 "110k" V 2500 6350 50  0000 C CNN
F 2 "" V 2430 6350 50  0000 C CNN
F 3 "" H 2500 6350 50  0000 C CNN
	1    2500 6350
	1    0    0    -1  
$EndComp
$Comp
L power:GND #PWR?
U 1 1 5D165601
P 2500 6500
AR Path="/59811E48/5D165601" Ref="#PWR?"  Part="1" 
AR Path="/598129F4/5D165601" Ref="#PWR?"  Part="1" 
AR Path="/5D165601" Ref="#PWR?"  Part="1" 
F 0 "#PWR?" H 2500 6250 50  0001 C CNN
F 1 "GND" H 2500 6350 50  0000 C CNN
F 2 "" H 2500 6500 50  0000 C CNN
F 3 "" H 2500 6500 50  0000 C CNN
	1    2500 6500
	1    0    0    -1  
$EndComp
Wire Wire Line
	2500 6200 2750 6200
Wire Wire Line
	2750 6200 2750 6500
Wire Wire Line
	2750 6500 3300 6500
$Comp
L power:GND #PWR?
U 1 1 5D16560E
P 3300 7100
AR Path="/59811E48/5D16560E" Ref="#PWR?"  Part="1" 
AR Path="/598129F4/5D16560E" Ref="#PWR?"  Part="1" 
AR Path="/5D16560E" Ref="#PWR?"  Part="1" 
F 0 "#PWR?" H 3300 6850 50  0001 C CNN
F 1 "GND" H 3300 6950 50  0000 C CNN
F 2 "" H 3300 7100 50  0000 C CNN
F 3 "" H 3300 7100 50  0000 C CNN
	1    3300 7100
	1    0    0    -1  
$EndComp
$Comp
L Device:R R?
U 1 1 5D165618
P 2750 6850
AR Path="/59811E48/5D165618" Ref="R?"  Part="1" 
AR Path="/598129F4/5D165618" Ref="R?"  Part="1" 
AR Path="/5D165618" Ref="R?"  Part="1" 
F 0 "R?" V 2830 6850 50  0000 C CNN
F 1 "0" V 2750 6850 50  0000 C CNN
F 2 "" V 2680 6850 50  0000 C CNN
F 3 "" H 2750 6850 50  0000 C CNN
	1    2750 6850
	1    0    0    -1  
$EndComp
$Comp
L Device:R R?
U 1 1 5D165622
P 2750 7150
AR Path="/59811E48/5D165622" Ref="R?"  Part="1" 
AR Path="/598129F4/5D165622" Ref="R?"  Part="1" 
AR Path="/5D165622" Ref="R?"  Part="1" 
F 0 "R?" V 2830 7150 50  0000 C CNN
F 1 "0" V 2750 7150 50  0000 C CNN
F 2 "" V 2680 7150 50  0000 C CNN
F 3 "" H 2750 7150 50  0000 C CNN
	1    2750 7150
	1    0    0    -1  
$EndComp
$Comp
L power:GND #PWR?
U 1 1 5D16562C
P 2750 7300
AR Path="/59811E48/5D16562C" Ref="#PWR?"  Part="1" 
AR Path="/598129F4/5D16562C" Ref="#PWR?"  Part="1" 
AR Path="/5D16562C" Ref="#PWR?"  Part="1" 
F 0 "#PWR?" H 2750 7050 50  0001 C CNN
F 1 "GND" H 2750 7150 50  0000 C CNN
F 2 "" H 2750 7300 50  0000 C CNN
F 3 "" H 2750 7300 50  0000 C CNN
	1    2750 7300
	1    0    0    -1  
$EndComp
Wire Wire Line
	2750 7000 3000 7000
Wire Wire Line
	3000 7000 3000 6900
Wire Wire Line
	3000 6900 3300 6900
Text Notes 2450 6900 0    60   ~ 0
4.2V
Text Notes 2450 7200 0    60   ~ 0
4.1V
Text Notes 1800 7050 0    60   ~ 0
Select EOC voltage
$Comp
L Device:C C?
U 1 1 5D16563C
P 5550 5650
AR Path="/59811E48/5D16563C" Ref="C?"  Part="1" 
AR Path="/598129F4/5D16563C" Ref="C?"  Part="1" 
AR Path="/5D16563C" Ref="C?"  Part="1" 
F 0 "C?" H 5575 5750 50  0000 L CNN
F 1 "10uF" H 5575 5550 50  0000 L CNN
F 2 "" H 5588 5500 50  0000 C CNN
F 3 "" H 5550 5650 50  0000 C CNN
	1    5550 5650
	1    0    0    -1  
$EndComp
Wire Wire Line
	4800 5500 5050 5500
Wire Wire Line
	4800 5700 5050 5700
Wire Wire Line
	5050 5500 5050 5700
Connection ~ 5050 5500
Wire Wire Line
	5050 5900 4800 5900
Connection ~ 5050 5700
$Comp
L power:GND #PWR?
U 1 1 5D16564C
P 5550 5800
AR Path="/59811E48/5D16564C" Ref="#PWR?"  Part="1" 
AR Path="/598129F4/5D16564C" Ref="#PWR?"  Part="1" 
AR Path="/5D16564C" Ref="#PWR?"  Part="1" 
F 0 "#PWR?" H 5550 5550 50  0001 C CNN
F 1 "GND" H 5550 5650 50  0000 C CNN
F 2 "" H 5550 5800 50  0000 C CNN
F 3 "" H 5550 5800 50  0000 C CNN
	1    5550 5800
	1    0    0    -1  
$EndComp
$Comp
L power:GND #PWR?
U 1 1 5D165656
P 4800 6100
AR Path="/59811E48/5D165656" Ref="#PWR?"  Part="1" 
AR Path="/598129F4/5D165656" Ref="#PWR?"  Part="1" 
AR Path="/5D165656" Ref="#PWR?"  Part="1" 
F 0 "#PWR?" H 4800 5850 50  0001 C CNN
F 1 "GND" H 4800 5950 50  0000 C CNN
F 2 "" H 4800 6100 50  0000 C CNN
F 3 "" H 4800 6100 50  0000 C CNN
	1    4800 6100
	1    0    0    -1  
$EndComp
$Comp
L Device:C C?
U 1 1 5D165660
P 5050 7050
AR Path="/59811E48/5D165660" Ref="C?"  Part="1" 
AR Path="/598129F4/5D165660" Ref="C?"  Part="1" 
AR Path="/5D165660" Ref="C?"  Part="1" 
F 0 "C?" H 5075 7150 50  0000 L CNN
F 1 "0.22uF" H 5075 6950 50  0000 L CNN
F 2 "" H 5088 6900 50  0000 C CNN
F 3 "" H 5050 7050 50  0000 C CNN
	1    5050 7050
	1    0    0    -1  
$EndComp
$Comp
L Device:C C?
U 1 1 5D16566A
P 5400 7050
AR Path="/59811E48/5D16566A" Ref="C?"  Part="1" 
AR Path="/598129F4/5D16566A" Ref="C?"  Part="1" 
AR Path="/5D16566A" Ref="C?"  Part="1" 
F 0 "C?" H 5425 7150 50  0000 L CNN
F 1 "10pf" H 5425 6950 50  0000 L CNN
F 2 "" H 5438 6900 50  0000 C CNN
F 3 "" H 5400 7050 50  0000 C CNN
	1    5400 7050
	1    0    0    -1  
$EndComp
Wire Wire Line
	4800 6900 5050 6900
Wire Wire Line
	4800 6700 5400 6700
$Comp
L power:GND #PWR?
U 1 1 5D165676
P 5050 7200
AR Path="/59811E48/5D165676" Ref="#PWR?"  Part="1" 
AR Path="/598129F4/5D165676" Ref="#PWR?"  Part="1" 
AR Path="/5D165676" Ref="#PWR?"  Part="1" 
F 0 "#PWR?" H 5050 6950 50  0001 C CNN
F 1 "GND" H 5050 7050 50  0000 C CNN
F 2 "" H 5050 7200 50  0000 C CNN
F 3 "" H 5050 7200 50  0000 C CNN
	1    5050 7200
	1    0    0    -1  
$EndComp
$Comp
L power:GND #PWR?
U 1 1 5D165680
P 5400 7200
AR Path="/59811E48/5D165680" Ref="#PWR?"  Part="1" 
AR Path="/598129F4/5D165680" Ref="#PWR?"  Part="1" 
AR Path="/5D165680" Ref="#PWR?"  Part="1" 
F 0 "#PWR?" H 5400 6950 50  0001 C CNN
F 1 "GND" H 5400 7050 50  0000 C CNN
F 2 "" H 5400 7200 50  0000 C CNN
F 3 "" H 5400 7200 50  0000 C CNN
	1    5400 7200
	1    0    0    -1  
$EndComp
Wire Wire Line
	5400 6700 5400 6900
$Comp
L Device:LED D?
U 1 1 5D16568B
P 5800 6500
AR Path="/59811E48/5D16568B" Ref="D?"  Part="1" 
AR Path="/598129F4/5D16568B" Ref="D?"  Part="1" 
AR Path="/5D16568B" Ref="D?"  Part="1" 
F 0 "D?" H 5800 6600 50  0000 C CNN
F 1 "LED" H 5800 6400 50  0000 C CNN
F 2 "" H 5800 6500 50  0000 C CNN
F 3 "" H 5800 6500 50  0000 C CNN
	1    5800 6500
	1    0    0    -1  
$EndComp
$Comp
L Device:LED D?
U 1 1 5D165695
P 5800 6300
AR Path="/59811E48/5D165695" Ref="D?"  Part="1" 
AR Path="/598129F4/5D165695" Ref="D?"  Part="1" 
AR Path="/5D165695" Ref="D?"  Part="1" 
F 0 "D?" H 5800 6400 50  0000 C CNN
F 1 "LED" H 5800 6200 50  0000 C CNN
F 2 "" H 5800 6300 50  0000 C CNN
F 3 "" H 5800 6300 50  0000 C CNN
	1    5800 6300
	1    0    0    -1  
$EndComp
$Comp
L Device:R R?
U 1 1 5D16569F
P 6100 6300
AR Path="/59811E48/5D16569F" Ref="R?"  Part="1" 
AR Path="/598129F4/5D16569F" Ref="R?"  Part="1" 
AR Path="/5D16569F" Ref="R?"  Part="1" 
F 0 "R?" V 6180 6300 50  0000 C CNN
F 1 "1.5k" V 6100 6300 50  0000 C CNN
F 2 "" V 6030 6300 50  0000 C CNN
F 3 "" H 6100 6300 50  0000 C CNN
	1    6100 6300
	0    1    1    0   
$EndComp
$Comp
L Device:R R?
U 1 1 5D1656A9
P 6100 6500
AR Path="/59811E48/5D1656A9" Ref="R?"  Part="1" 
AR Path="/598129F4/5D1656A9" Ref="R?"  Part="1" 
AR Path="/5D1656A9" Ref="R?"  Part="1" 
F 0 "R?" V 6180 6500 50  0000 C CNN
F 1 "1.5k" V 6100 6500 50  0000 C CNN
F 2 "" V 6030 6500 50  0000 C CNN
F 3 "" H 6100 6500 50  0000 C CNN
	1    6100 6500
	0    1    1    0   
$EndComp
Wire Wire Line
	2200 7600 6250 7600
Connection ~ 2200 6700
$Comp
L power:GND #PWR?
U 1 1 5D1656B5
P 1900 5800
AR Path="/59811E48/5D1656B5" Ref="#PWR?"  Part="1" 
AR Path="/598129F4/5D1656B5" Ref="#PWR?"  Part="1" 
AR Path="/5D1656B5" Ref="#PWR?"  Part="1" 
F 0 "#PWR?" H 1900 5550 50  0001 C CNN
F 1 "GND" H 1900 5650 50  0000 C CNN
F 2 "" H 1900 5800 50  0000 C CNN
F 3 "" H 1900 5800 50  0000 C CNN
	1    1900 5800
	1    0    0    -1  
$EndComp
Text Notes 6350 6300 0    60   ~ 0
Charging 90% complete
Text Notes 6350 6500 0    60   ~ 0
Battery charging
$Comp
L power:PWR_FLAG #FLG?
U 1 1 5D1656C1
P 2900 5500
AR Path="/59811E48/5D1656C1" Ref="#FLG?"  Part="1" 
AR Path="/598129F4/5D1656C1" Ref="#FLG?"  Part="1" 
AR Path="/5D1656C1" Ref="#FLG?"  Part="1" 
F 0 "#FLG?" H 2900 5595 50  0001 C CNN
F 1 "PWR_FLAG" H 2900 5680 50  0000 C CNN
F 2 "" H 2900 5500 50  0000 C CNN
F 3 "" H 2900 5500 50  0000 C CNN
	1    2900 5500
	1    0    0    -1  
$EndComp
Wire Wire Line
	3050 5700 3050 6100
Wire Wire Line
	3050 5500 3300 5500
Wire Wire Line
	2200 5500 2400 5500
Wire Wire Line
	2200 5900 2200 6700
Wire Wire Line
	5050 5700 5050 5900
Wire Wire Line
	2200 6700 2200 7600
Wire Wire Line
	2700 5500 2900 5500
Wire Wire Line
	2200 5900 2500 5900
Wire Wire Line
	2200 6700 2750 6700
Wire Wire Line
	6250 6300 6250 6500
Wire Wire Line
	5050 5500 5550 5500
Wire Wire Line
	4800 6500 5650 6500
Wire Wire Line
	4800 6300 5650 6300
Wire Wire Line
	1900 5500 2200 5500
Connection ~ 2500 5900
Wire Wire Line
	2500 5900 3300 5900
Connection ~ 2500 6200
Connection ~ 2750 6700
Wire Wire Line
	2750 6700 3300 6700
Connection ~ 2750 7000
Connection ~ 2900 5500
Wire Wire Line
	2900 5500 3050 5500
Connection ~ 6250 6500
Wire Wire Line
	6250 6500 6250 7600
$Comp
L Amplifier_Current:INA195 U?
U 1 1 5D1656E3
P 2150 4750
F 0 "U?" H 2494 4796 50  0000 L CNN
F 1 "INA195" H 2494 4705 50  0000 L CNN
F 2 "Package_TO_SOT_SMD:SOT-23-5" H 2150 4750 50  0001 C CNN
F 3 "http://www.ti.com/lit/ds/symlink/ina193.pdf" H 2150 4750 50  0001 C CNN
	1    2150 4750
	1    0    0    -1  
$EndComp
$Comp
L Device:R R?
U 1 1 5D1656ED
P 1600 5500
F 0 "R?" V 1807 5500 50  0000 C CNN
F 1 "33m" V 1716 5500 50  0000 C CNN
F 2 "" V 1530 5500 50  0001 C CNN
F 3 "~" H 1600 5500 50  0001 C CNN
	1    1600 5500
	0    -1   -1   0   
$EndComp
$Comp
L power:GND #PWR?
U 1 1 5D1656F7
P 2050 5050
F 0 "#PWR?" H 2050 4800 50  0001 C CNN
F 1 "GND" H 2055 4877 50  0000 C CNN
F 2 "" H 2050 5050 50  0001 C CNN
F 3 "" H 2050 5050 50  0001 C CNN
	1    2050 5050
	1    0    0    -1  
$EndComp
$Comp
L power:VCC #PWR?
U 1 1 5D165701
P 2050 4450
F 0 "#PWR?" H 2050 4300 50  0001 C CNN
F 1 "VCC" H 2067 4623 50  0000 C CNN
F 2 "" H 2050 4450 50  0001 C CNN
F 3 "" H 2050 4450 50  0001 C CNN
	1    2050 4450
	1    0    0    -1  
$EndComp
Wire Wire Line
	1850 4850 1750 4850
Wire Wire Line
	1750 4850 1750 5500
Wire Wire Line
	1850 4650 1450 4650
Wire Wire Line
	1450 4650 1450 5500
Wire Wire Line
	2850 4750 2450 4750
$Comp
L Amplifier_Current:INA195 U?
U 1 1 5D165710
P 6450 4750
F 0 "U?" H 6794 4796 50  0000 L CNN
F 1 "INA195" H 6794 4705 50  0000 L CNN
F 2 "Package_TO_SOT_SMD:SOT-23-5" H 6450 4750 50  0001 C CNN
F 3 "http://www.ti.com/lit/ds/symlink/ina193.pdf" H 6450 4750 50  0001 C CNN
	1    6450 4750
	1    0    0    -1  
$EndComp
$Comp
L Device:R R?
U 1 1 5D16571A
P 5900 5500
F 0 "R?" V 6107 5500 50  0000 C CNN
F 1 "33m" V 6016 5500 50  0000 C CNN
F 2 "" V 5830 5500 50  0001 C CNN
F 3 "~" H 5900 5500 50  0001 C CNN
	1    5900 5500
	0    -1   -1   0   
$EndComp
$Comp
L power:GND #PWR?
U 1 1 5D165724
P 6350 5050
F 0 "#PWR?" H 6350 4800 50  0001 C CNN
F 1 "GND" H 6355 4877 50  0000 C CNN
F 2 "" H 6350 5050 50  0001 C CNN
F 3 "" H 6350 5050 50  0001 C CNN
	1    6350 5050
	1    0    0    -1  
$EndComp
$Comp
L power:VCC #PWR?
U 1 1 5D16572E
P 6350 4450
F 0 "#PWR?" H 6350 4300 50  0001 C CNN
F 1 "VCC" H 6367 4623 50  0000 C CNN
F 2 "" H 6350 4450 50  0001 C CNN
F 3 "" H 6350 4450 50  0001 C CNN
	1    6350 4450
	1    0    0    -1  
$EndComp
Wire Wire Line
	6150 4850 6050 4850
Wire Wire Line
	6050 4850 6050 5500
Wire Wire Line
	6150 4650 5750 4650
Wire Wire Line
	5750 4650 5750 5500
Wire Wire Line
	7150 4750 6750 4750
Wire Wire Line
	1750 5500 1900 5500
Connection ~ 1750 5500
Connection ~ 1900 5500
Wire Wire Line
	1000 5500 1450 5500
Connection ~ 1450 5500
Wire Wire Line
	5550 5500 5750 5500
Connection ~ 5550 5500
Connection ~ 5750 5500
Wire Wire Line
	7150 5500 6050 5500
Connection ~ 6050 5500
$Comp
L power:GND #PWR?
U 1 1 5D1772A1
P 8500 6250
F 0 "#PWR?" H 8500 6000 50  0001 C CNN
F 1 "GND" H 8505 6077 50  0000 C CNN
F 2 "" H 8500 6250 50  0001 C CNN
F 3 "" H 8500 6250 50  0001 C CNN
	1    8500 6250
	1    0    0    -1  
$EndComp
$Comp
L power:PWR_FLAG #FLG?
U 1 1 5D177C53
P 8500 6000
F 0 "#FLG?" H 8500 6075 50  0001 C CNN
F 1 "PWR_FLAG" H 8500 6173 50  0000 C CNN
F 2 "" H 8500 6000 50  0001 C CNN
F 3 "~" H 8500 6000 50  0001 C CNN
	1    8500 6000
	1    0    0    -1  
$EndComp
$Comp
L power:PWR_FLAG #FLG?
U 1 1 5D178583
P 9000 6250
F 0 "#FLG?" H 9000 6325 50  0001 C CNN
F 1 "PWR_FLAG" H 9000 6423 50  0000 C CNN
F 2 "" H 9000 6250 50  0001 C CNN
F 3 "~" H 9000 6250 50  0001 C CNN
	1    9000 6250
	-1   0    0    1   
$EndComp
$Comp
L power:VCC #PWR?
U 1 1 5D1790AA
P 9000 6000
F 0 "#PWR?" H 9000 5850 50  0001 C CNN
F 1 "VCC" H 9017 6173 50  0000 C CNN
F 2 "" H 9000 6000 50  0001 C CNN
F 3 "" H 9000 6000 50  0001 C CNN
	1    9000 6000
	1    0    0    -1  
$EndComp
Wire Wire Line
	8500 6000 8500 6250
Wire Wire Line
	9000 6250 9000 6000
$Comp
L power:GND #PWR?
U 1 1 5D180912
P 9800 1500
F 0 "#PWR?" H 9800 1250 50  0001 C CNN
F 1 "GND" H 9805 1327 50  0000 C CNN
F 2 "" H 9800 1500 50  0001 C CNN
F 3 "" H 9800 1500 50  0001 C CNN
	1    9800 1500
	1    0    0    -1  
$EndComp
$Comp
L power:GND #PWR?
U 1 1 5D181DF9
P 9800 2250
F 0 "#PWR?" H 9800 2000 50  0001 C CNN
F 1 "GND" H 9805 2077 50  0000 C CNN
F 2 "" H 9800 2250 50  0001 C CNN
F 3 "" H 9800 2250 50  0001 C CNN
	1    9800 2250
	1    0    0    -1  
$EndComp
$Comp
L power:GND #PWR?
U 1 1 5D18249A
P 9800 3200
F 0 "#PWR?" H 9800 2950 50  0001 C CNN
F 1 "GND" H 9805 3027 50  0000 C CNN
F 2 "" H 9800 3200 50  0001 C CNN
F 3 "" H 9800 3200 50  0001 C CNN
	1    9800 3200
	1    0    0    -1  
$EndComp
Wire Wire Line
	9800 2250 9800 2150
Wire Wire Line
	9800 2150 10000 2150
Wire Wire Line
	10000 2050 10000 2150
Connection ~ 10000 2150
Wire Wire Line
	10000 2250 10000 2150
Wire Wire Line
	9800 1500 9800 1400
Wire Wire Line
	9800 1400 10000 1400
Wire Wire Line
	10000 1300 10000 1400
Connection ~ 10000 1400
Wire Wire Line
	10000 1500 10000 1400
Wire Wire Line
	9800 1100 10000 1100
Wire Wire Line
	10000 1000 10000 1100
Connection ~ 10000 1100
Wire Wire Line
	10000 1100 10000 1200
Wire Wire Line
	10000 1750 10000 1850
Connection ~ 10000 1850
Wire Wire Line
	10000 1850 10000 1950
Wire Wire Line
	9800 1850 10000 1850
Wire Wire Line
	9800 2500 10000 2500
Wire Wire Line
	9800 2600 10000 2600
Wire Wire Line
	9800 2900 10000 2900
Wire Wire Line
	10000 3100 10000 3000
Wire Wire Line
	9600 3000 10000 3000
Connection ~ 10000 3000
Wire Wire Line
	9800 3200 10000 3200
$Comp
L Connector:Conn_01x06_Male J?
U 1 1 5D1CD82F
P 10200 3950
F 0 "J?" H 10172 3832 50  0000 R CNN
F 1 "Conn_01x06_Male" H 10172 3923 50  0000 R CNN
F 2 "" H 10200 3950 50  0001 C CNN
F 3 "~" H 10200 3950 50  0001 C CNN
	1    10200 3950
	-1   0    0    1   
$EndComp
$Comp
L Connector:Conn_01x06_Male J?
U 1 1 5D1CD839
P 10200 4700
F 0 "J?" H 10172 4582 50  0000 R CNN
F 1 "Conn_01x06_Male" H 10172 4673 50  0000 R CNN
F 2 "" H 10200 4700 50  0001 C CNN
F 3 "~" H 10200 4700 50  0001 C CNN
	1    10200 4700
	-1   0    0    1   
$EndComp
$Comp
L Connector:Conn_01x02_Male J?
U 1 1 5D1CD843
P 10200 5250
F 0 "J?" H 10172 5132 50  0000 R CNN
F 1 "Conn_01x02_Male" H 10172 5223 50  0000 R CNN
F 2 "" H 10200 5250 50  0001 C CNN
F 3 "~" H 10200 5250 50  0001 C CNN
	1    10200 5250
	-1   0    0    1   
$EndComp
$Comp
L power:GND #PWR?
U 1 1 5D1CD84D
P 9800 4150
F 0 "#PWR?" H 9800 3900 50  0001 C CNN
F 1 "GND" H 9805 3977 50  0000 C CNN
F 2 "" H 9800 4150 50  0001 C CNN
F 3 "" H 9800 4150 50  0001 C CNN
	1    9800 4150
	1    0    0    -1  
$EndComp
$Comp
L power:GND #PWR?
U 1 1 5D1CD857
P 9800 4900
F 0 "#PWR?" H 9800 4650 50  0001 C CNN
F 1 "GND" H 9805 4727 50  0000 C CNN
F 2 "" H 9800 4900 50  0001 C CNN
F 3 "" H 9800 4900 50  0001 C CNN
	1    9800 4900
	1    0    0    -1  
$EndComp
Wire Wire Line
	9800 4900 9800 4800
Wire Wire Line
	9800 4800 10000 4800
Wire Wire Line
	10000 4700 10000 4800
Connection ~ 10000 4800
Wire Wire Line
	10000 4900 10000 4800
Wire Wire Line
	9800 4150 9800 4050
Wire Wire Line
	9800 4050 10000 4050
Wire Wire Line
	10000 3950 10000 4050
Connection ~ 10000 4050
Wire Wire Line
	10000 4150 10000 4050
Wire Wire Line
	9800 3750 10000 3750
Wire Wire Line
	10000 3650 10000 3750
Connection ~ 10000 3750
Wire Wire Line
	10000 3750 10000 3850
Wire Wire Line
	10000 4400 10000 4500
Connection ~ 10000 4500
Wire Wire Line
	10000 4500 10000 4600
Wire Wire Line
	9800 4500 10000 4500
Wire Wire Line
	9800 5150 10000 5150
Wire Wire Line
	9800 5250 10000 5250
$Comp
L power:VCC #PWR?
U 1 1 5D1D72D2
P 9600 3000
F 0 "#PWR?" H 9600 2850 50  0001 C CNN
F 1 "VCC" H 9617 3173 50  0000 C CNN
F 2 "" H 9600 3000 50  0001 C CNN
F 3 "" H 9600 3000 50  0001 C CNN
	1    9600 3000
	1    0    0    -1  
$EndComp
Text Label 1000 2000 0    50   ~ 0
VIN1
Text Label 9800 1100 0    50   ~ 0
VIN1
Text Label 9800 1850 0    50   ~ 0
VIN2
Text Label 9800 2500 0    50   ~ 0
VIN1
Text Label 9800 2600 0    50   ~ 0
VIN2
Text Label 9800 2900 0    50   ~ 0
VOUT2
Text Label 9800 3750 0    50   ~ 0
VOUT1
Text Label 9800 4500 0    50   ~ 0
VOUT2
Text Label 9800 5150 0    50   ~ 0
VOUT1
Text Label 9800 5250 0    50   ~ 0
VOUT2
Text Label 7150 2000 0    50   ~ 0
VOUT1
Text Label 7150 7250 0    50   ~ 0
VOUT2
Text Label 7150 5500 0    50   ~ 0
VOUT2
Text Label 1000 5500 0    50   ~ 0
VIN2
$Comp
L Connector:Conn_01x01_Male J?
U 1 1 5D1DD570
P 3050 1250
F 0 "J?" H 3022 1182 50  0000 R CNN
F 1 "Conn_01x01_Male" H 3022 1273 50  0000 R CNN
F 2 "" H 3050 1250 50  0001 C CNN
F 3 "~" H 3050 1250 50  0001 C CNN
	1    3050 1250
	-1   0    0    1   
$EndComp
$Comp
L Connector:Conn_01x01_Male J?
U 1 1 5D1DDE4D
P 7350 1250
F 0 "J?" H 7322 1182 50  0000 R CNN
F 1 "Conn_01x01_Male" H 7322 1273 50  0000 R CNN
F 2 "" H 7350 1250 50  0001 C CNN
F 3 "~" H 7350 1250 50  0001 C CNN
	1    7350 1250
	-1   0    0    1   
$EndComp
$Comp
L Connector:Conn_01x01_Male J?
U 1 1 5D1DE9E4
P 7350 4750
F 0 "J?" H 7322 4682 50  0000 R CNN
F 1 "Conn_01x01_Male" H 7322 4773 50  0000 R CNN
F 2 "" H 7350 4750 50  0001 C CNN
F 3 "~" H 7350 4750 50  0001 C CNN
	1    7350 4750
	-1   0    0    1   
$EndComp
$Comp
L Connector:Conn_01x01_Male J?
U 1 1 5D1DF54C
P 3050 4750
F 0 "J?" H 3022 4682 50  0000 R CNN
F 1 "Conn_01x01_Male" H 3022 4773 50  0000 R CNN
F 2 "" H 3050 4750 50  0001 C CNN
F 3 "~" H 3050 4750 50  0001 C CNN
	1    3050 4750
	-1   0    0    1   
$EndComp
$EndSCHEMATC
