EESchema Schematic File Version 4
LIBS:pcdu-cache
EELAYER 29 0
EELAYER END
$Descr A4 11693 8268
encoding utf-8
Sheet 3 35
Title "Battery Charge Regulator"
Date ""
Rev ""
Comp "LibreCube"
Comment1 ""
Comment2 ""
Comment3 ""
Comment4 ""
$EndDescr
Text HLabel 2800 2750 0    60   Input ~ 0
IN
Text HLabel 8050 2750 2    60   Output ~ 0
OUT
$Comp
L pcdu-rescue:bq24002-mylib U2
U 1 1 59824991
P 5850 3450
AR Path="/59811E48/59824991" Ref="U2"  Part="1" 
AR Path="/598129F4/59824991" Ref="U3"  Part="1" 
F 0 "U2" H 5850 3700 50  0000 C CNN
F 1 "bq24002" H 5600 2400 50  0000 C CNN
F 2 "" H 5850 3800 60  0000 C CNN
F 3 "" H 5850 3800 60  0000 C CNN
	1    5850 3450
	1    0    0    -1  
$EndComp
$Comp
L pcdu-rescue:R-Device R3
U 1 1 59824A80
P 4350 2750
AR Path="/59811E48/59824A80" Ref="R3"  Part="1" 
AR Path="/598129F4/59824A80" Ref="R10"  Part="1" 
F 0 "R3" V 4430 2750 50  0000 C CNN
F 1 "0.1" V 4350 2750 50  0000 C CNN
F 2 "" V 4280 2750 50  0000 C CNN
F 3 "" H 4350 2750 50  0000 C CNN
	1    4350 2750
	0    1    1    0   
$EndComp
Wire Wire Line
	4850 3350 5100 3350
Wire Wire Line
	4850 2750 4850 2950
Wire Wire Line
	5100 2950 4850 2950
Connection ~ 4850 2950
Connection ~ 4850 2750
Wire Wire Line
	4000 2750 4000 3150
Connection ~ 4000 2750
$Comp
L pcdu-rescue:C-Device C4
U 1 1 59824B62
P 3700 2900
AR Path="/59811E48/59824B62" Ref="C4"  Part="1" 
AR Path="/598129F4/59824B62" Ref="C8"  Part="1" 
F 0 "C4" H 3725 3000 50  0000 L CNN
F 1 "10uF" H 3725 2800 50  0000 L CNN
F 2 "" H 3738 2750 50  0000 C CNN
F 3 "" H 3700 2900 50  0000 C CNN
	1    3700 2900
	1    0    0    -1  
$EndComp
Connection ~ 4000 3150
$Comp
L pcdu-rescue:R-Device R1
U 1 1 59824BAF
P 4300 3300
AR Path="/59811E48/59824BAF" Ref="R1"  Part="1" 
AR Path="/598129F4/59824BAF" Ref="R8"  Part="1" 
F 0 "R1" V 4380 3300 50  0000 C CNN
F 1 "309k" V 4300 3300 50  0000 C CNN
F 2 "" V 4230 3300 50  0000 C CNN
F 3 "" H 4300 3300 50  0000 C CNN
	1    4300 3300
	1    0    0    -1  
$EndComp
$Comp
L pcdu-rescue:R-Device R2
U 1 1 59824C0C
P 4300 3600
AR Path="/59811E48/59824C0C" Ref="R2"  Part="1" 
AR Path="/598129F4/59824C0C" Ref="R9"  Part="1" 
F 0 "R2" V 4380 3600 50  0000 C CNN
F 1 "110k" V 4300 3600 50  0000 C CNN
F 2 "" V 4230 3600 50  0000 C CNN
F 3 "" H 4300 3600 50  0000 C CNN
	1    4300 3600
	1    0    0    -1  
$EndComp
$Comp
L pcdu-rescue:GND-power #PWR14
U 1 1 59824C37
P 4300 3750
AR Path="/59811E48/59824C37" Ref="#PWR14"  Part="1" 
AR Path="/598129F4/59824C37" Ref="#PWR22"  Part="1" 
F 0 "#PWR14" H 4300 3500 50  0001 C CNN
F 1 "GND" H 4300 3600 50  0000 C CNN
F 2 "" H 4300 3750 50  0000 C CNN
F 3 "" H 4300 3750 50  0000 C CNN
	1    4300 3750
	1    0    0    -1  
$EndComp
Wire Wire Line
	4300 3450 4550 3450
Wire Wire Line
	4550 3450 4550 3750
Wire Wire Line
	4550 3750 5100 3750
$Comp
L pcdu-rescue:GND-power #PWR16
U 1 1 59824CF1
P 5100 4350
AR Path="/59811E48/59824CF1" Ref="#PWR16"  Part="1" 
AR Path="/598129F4/59824CF1" Ref="#PWR24"  Part="1" 
F 0 "#PWR16" H 5100 4100 50  0001 C CNN
F 1 "GND" H 5100 4200 50  0000 C CNN
F 2 "" H 5100 4350 50  0000 C CNN
F 3 "" H 5100 4350 50  0000 C CNN
	1    5100 4350
	1    0    0    -1  
$EndComp
$Comp
L pcdu-rescue:R-Device R4
U 1 1 59824D08
P 4550 4100
AR Path="/59811E48/59824D08" Ref="R4"  Part="1" 
AR Path="/598129F4/59824D08" Ref="R11"  Part="1" 
F 0 "R4" V 4630 4100 50  0000 C CNN
F 1 "0" V 4550 4100 50  0000 C CNN
F 2 "" V 4480 4100 50  0000 C CNN
F 3 "" H 4550 4100 50  0000 C CNN
	1    4550 4100
	1    0    0    -1  
$EndComp
$Comp
L pcdu-rescue:R-Device R5
U 1 1 59824D75
P 4550 4400
AR Path="/59811E48/59824D75" Ref="R5"  Part="1" 
AR Path="/598129F4/59824D75" Ref="R12"  Part="1" 
F 0 "R5" V 4630 4400 50  0000 C CNN
F 1 "0" V 4550 4400 50  0000 C CNN
F 2 "" V 4480 4400 50  0000 C CNN
F 3 "" H 4550 4400 50  0000 C CNN
	1    4550 4400
	1    0    0    -1  
$EndComp
$Comp
L pcdu-rescue:GND-power #PWR15
U 1 1 59824DAB
P 4550 4550
AR Path="/59811E48/59824DAB" Ref="#PWR15"  Part="1" 
AR Path="/598129F4/59824DAB" Ref="#PWR23"  Part="1" 
F 0 "#PWR15" H 4550 4300 50  0001 C CNN
F 1 "GND" H 4550 4400 50  0000 C CNN
F 2 "" H 4550 4550 50  0000 C CNN
F 3 "" H 4550 4550 50  0000 C CNN
	1    4550 4550
	1    0    0    -1  
$EndComp
Wire Wire Line
	4550 4250 4800 4250
Wire Wire Line
	4800 4250 4800 4150
Wire Wire Line
	4800 4150 5100 4150
Text Notes 4250 4150 0    60   ~ 0
4.2V
Text Notes 4250 4450 0    60   ~ 0
4.1V
Text Notes 3600 4300 0    60   ~ 0
Select EOC voltage
$Comp
L pcdu-rescue:C-Device C7
U 1 1 59824FDC
P 7350 2900
AR Path="/59811E48/59824FDC" Ref="C7"  Part="1" 
AR Path="/598129F4/59824FDC" Ref="C11"  Part="1" 
F 0 "C7" H 7375 3000 50  0000 L CNN
F 1 "10uF" H 7375 2800 50  0000 L CNN
F 2 "" H 7388 2750 50  0000 C CNN
F 3 "" H 7350 2900 50  0000 C CNN
	1    7350 2900
	1    0    0    -1  
$EndComp
Wire Wire Line
	6600 2750 6850 2750
Wire Wire Line
	6600 2950 6850 2950
Wire Wire Line
	6850 2750 6850 2950
Connection ~ 6850 2750
Wire Wire Line
	6850 3150 6600 3150
Connection ~ 6850 2950
$Comp
L pcdu-rescue:GND-power #PWR20
U 1 1 5982507D
P 7350 3050
AR Path="/59811E48/5982507D" Ref="#PWR20"  Part="1" 
AR Path="/598129F4/5982507D" Ref="#PWR28"  Part="1" 
F 0 "#PWR20" H 7350 2800 50  0001 C CNN
F 1 "GND" H 7350 2900 50  0000 C CNN
F 2 "" H 7350 3050 50  0000 C CNN
F 3 "" H 7350 3050 50  0000 C CNN
	1    7350 3050
	1    0    0    -1  
$EndComp
$Comp
L pcdu-rescue:GND-power #PWR17
U 1 1 598250C5
P 6600 3350
AR Path="/59811E48/598250C5" Ref="#PWR17"  Part="1" 
AR Path="/598129F4/598250C5" Ref="#PWR25"  Part="1" 
F 0 "#PWR17" H 6600 3100 50  0001 C CNN
F 1 "GND" H 6600 3200 50  0000 C CNN
F 2 "" H 6600 3350 50  0000 C CNN
F 3 "" H 6600 3350 50  0000 C CNN
	1    6600 3350
	1    0    0    -1  
$EndComp
$Comp
L pcdu-rescue:C-Device C5
U 1 1 598250E9
P 6850 4300
AR Path="/59811E48/598250E9" Ref="C5"  Part="1" 
AR Path="/598129F4/598250E9" Ref="C9"  Part="1" 
F 0 "C5" H 6875 4400 50  0000 L CNN
F 1 "0.22uF" H 6875 4200 50  0000 L CNN
F 2 "" H 6888 4150 50  0000 C CNN
F 3 "" H 6850 4300 50  0000 C CNN
	1    6850 4300
	1    0    0    -1  
$EndComp
$Comp
L pcdu-rescue:C-Device C6
U 1 1 59825118
P 7200 4300
AR Path="/59811E48/59825118" Ref="C6"  Part="1" 
AR Path="/598129F4/59825118" Ref="C10"  Part="1" 
F 0 "C6" H 7225 4400 50  0000 L CNN
F 1 "10pf" H 7225 4200 50  0000 L CNN
F 2 "" H 7238 4150 50  0000 C CNN
F 3 "" H 7200 4300 50  0000 C CNN
	1    7200 4300
	1    0    0    -1  
$EndComp
Wire Wire Line
	6600 4150 6850 4150
Wire Wire Line
	6600 3950 7200 3950
$Comp
L pcdu-rescue:GND-power #PWR18
U 1 1 59825190
P 6850 4450
AR Path="/59811E48/59825190" Ref="#PWR18"  Part="1" 
AR Path="/598129F4/59825190" Ref="#PWR26"  Part="1" 
F 0 "#PWR18" H 6850 4200 50  0001 C CNN
F 1 "GND" H 6850 4300 50  0000 C CNN
F 2 "" H 6850 4450 50  0000 C CNN
F 3 "" H 6850 4450 50  0000 C CNN
	1    6850 4450
	1    0    0    -1  
$EndComp
$Comp
L pcdu-rescue:GND-power #PWR19
U 1 1 598251B8
P 7200 4450
AR Path="/59811E48/598251B8" Ref="#PWR19"  Part="1" 
AR Path="/598129F4/598251B8" Ref="#PWR27"  Part="1" 
F 0 "#PWR19" H 7200 4200 50  0001 C CNN
F 1 "GND" H 7200 4300 50  0000 C CNN
F 2 "" H 7200 4450 50  0000 C CNN
F 3 "" H 7200 4450 50  0000 C CNN
	1    7200 4450
	1    0    0    -1  
$EndComp
Wire Wire Line
	7200 3950 7200 4150
$Comp
L pcdu-rescue:LED-Device D18
U 1 1 598252C5
P 7550 3750
AR Path="/59811E48/598252C5" Ref="D18"  Part="1" 
AR Path="/598129F4/598252C5" Ref="D20"  Part="1" 
F 0 "D18" H 7550 3850 50  0000 C CNN
F 1 "LED" H 7550 3650 50  0000 C CNN
F 2 "" H 7550 3750 50  0000 C CNN
F 3 "" H 7550 3750 50  0000 C CNN
	1    7550 3750
	1    0    0    -1  
$EndComp
$Comp
L pcdu-rescue:LED-Device D17
U 1 1 59825380
P 7550 3550
AR Path="/59811E48/59825380" Ref="D17"  Part="1" 
AR Path="/598129F4/59825380" Ref="D19"  Part="1" 
F 0 "D17" H 7550 3650 50  0000 C CNN
F 1 "LED" H 7550 3450 50  0000 C CNN
F 2 "" H 7550 3550 50  0000 C CNN
F 3 "" H 7550 3550 50  0000 C CNN
	1    7550 3550
	1    0    0    -1  
$EndComp
$Comp
L pcdu-rescue:R-Device R6
U 1 1 5982540D
P 7900 3550
AR Path="/59811E48/5982540D" Ref="R6"  Part="1" 
AR Path="/598129F4/5982540D" Ref="R13"  Part="1" 
F 0 "R6" V 7980 3550 50  0000 C CNN
F 1 "1.5k" V 7900 3550 50  0000 C CNN
F 2 "" V 7830 3550 50  0000 C CNN
F 3 "" H 7900 3550 50  0000 C CNN
	1    7900 3550
	0    1    1    0   
$EndComp
$Comp
L pcdu-rescue:R-Device R7
U 1 1 59825459
P 7900 3750
AR Path="/59811E48/59825459" Ref="R7"  Part="1" 
AR Path="/598129F4/59825459" Ref="R14"  Part="1" 
F 0 "R7" V 7980 3750 50  0000 C CNN
F 1 "1.5k" V 7900 3750 50  0000 C CNN
F 2 "" V 7830 3750 50  0000 C CNN
F 3 "" H 7900 3750 50  0000 C CNN
	1    7900 3750
	0    1    1    0   
$EndComp
Wire Wire Line
	4000 4850 8050 4850
Connection ~ 4000 3950
$Comp
L pcdu-rescue:GND-power #PWR13
U 1 1 598259AE
P 3700 3050
AR Path="/59811E48/598259AE" Ref="#PWR13"  Part="1" 
AR Path="/598129F4/598259AE" Ref="#PWR21"  Part="1" 
F 0 "#PWR13" H 3700 2800 50  0001 C CNN
F 1 "GND" H 3700 2900 50  0000 C CNN
F 2 "" H 3700 3050 50  0000 C CNN
F 3 "" H 3700 3050 50  0000 C CNN
	1    3700 3050
	1    0    0    -1  
$EndComp
Text Notes 8150 3550 0    60   ~ 0
Charging 90% complete
Text Notes 8150 3750 0    60   ~ 0
Battery charging
$Comp
L pcdu-rescue:PWR_FLAG-power #FLG5
U 1 1 5985FE50
P 4700 2750
AR Path="/59811E48/5985FE50" Ref="#FLG5"  Part="1" 
AR Path="/598129F4/5985FE50" Ref="#FLG6"  Part="1" 
F 0 "#FLG5" H 4700 2845 50  0001 C CNN
F 1 "PWR_FLAG" H 4700 2930 50  0000 C CNN
F 2 "" H 4700 2750 50  0000 C CNN
F 3 "" H 4700 2750 50  0000 C CNN
	1    4700 2750
	1    0    0    -1  
$EndComp
Wire Wire Line
	7350 3550 6600 3550
Wire Wire Line
	7350 3750 6600 3750
Wire Wire Line
	4850 2950 4850 3350
Wire Wire Line
	4850 2750 5100 2750
Wire Wire Line
	4000 2750 4200 2750
Wire Wire Line
	4000 3150 4000 3950
Wire Wire Line
	6850 2950 6850 3150
Wire Wire Line
	4000 3950 4000 4850
Wire Wire Line
	4500 2750 4850 2750
Wire Wire Line
	4000 3150 5100 3150
Wire Wire Line
	2800 2750 4000 2750
Wire Wire Line
	4000 3950 5100 3950
Wire Wire Line
	8050 3550 8050 4850
Wire Wire Line
	6850 2750 8050 2750
$EndSCHEMATC
