EESchema Schematic File Version 4
LIBS:pcdu-cache
EELAYER 29 0
EELAYER END
$Descr A4 11693 8268
encoding utf-8
Sheet 19 35
Title "Array Power Regulator"
Date ""
Rev ""
Comp "LibreCube"
Comment1 ""
Comment2 ""
Comment3 ""
Comment4 ""
$EndDescr
Text HLabel 3550 2950 0    60   Input ~ 0
IN
Text HLabel 7850 2750 2    60   Output ~ 0
OUT
$Comp
L pcdu-rescue:TPS61032-mylib U1
U 1 1 59810773
P 5950 3450
AR Path="/5981037A/59810773" Ref="U1"  Part="1" 
AR Path="/5981D081/59810773" Ref="U4"  Part="1" 
AR Path="/5981E955/59810773" Ref="U7"  Part="1" 
AR Path="/597FA003/59810773" Ref="U14"  Part="1" 
F 0 "U14" H 5950 3700 50  0000 C CNN
F 1 "TPS61032" H 5700 2400 50  0000 C CNN
F 2 "" H 5950 3800 60  0000 C CNN
F 3 "" H 5950 3800 60  0000 C CNN
	1    5950 3450
	1    0    0    -1  
$EndComp
$Comp
L pcdu-rescue:GND-power #PWR11
U 1 1 59810A16
P 6850 4450
AR Path="/5981037A/59810A16" Ref="#PWR11"  Part="1" 
AR Path="/5981D081/59810A16" Ref="#PWR31"  Part="1" 
AR Path="/5981E955/59810A16" Ref="#PWR44"  Part="1" 
AR Path="/597FA003/59810A16" Ref="#PWR66"  Part="1" 
F 0 "#PWR66" H 6850 4200 50  0001 C CNN
F 1 "GND" H 6850 4300 50  0000 C CNN
F 2 "" H 6850 4450 50  0000 C CNN
F 3 "" H 6850 4450 50  0000 C CNN
	1    6850 4450
	1    0    0    -1  
$EndComp
Wire Wire Line
	6700 3750 6850 3750
Wire Wire Line
	6850 3750 6850 3950
Wire Wire Line
	6700 3950 6850 3950
Connection ~ 6850 3950
Wire Wire Line
	6700 4150 6850 4150
Connection ~ 6850 4150
Wire Wire Line
	6850 4350 6700 4350
Connection ~ 6850 4350
Wire Wire Line
	5200 2550 5200 2750
$Comp
L pcdu-rescue:GND-power #PWR10
U 1 1 59810AE6
P 5000 4450
AR Path="/5981037A/59810AE6" Ref="#PWR10"  Part="1" 
AR Path="/5981D081/59810AE6" Ref="#PWR30"  Part="1" 
AR Path="/5981E955/59810AE6" Ref="#PWR43"  Part="1" 
AR Path="/597FA003/59810AE6" Ref="#PWR65"  Part="1" 
F 0 "#PWR65" H 5000 4200 50  0001 C CNN
F 1 "GND" H 5000 4300 50  0000 C CNN
F 2 "" H 5000 4450 50  0000 C CNN
F 3 "" H 5000 4450 50  0000 C CNN
	1    5000 4450
	1    0    0    -1  
$EndComp
Wire Wire Line
	5000 4350 5200 4350
Wire Wire Line
	5000 3350 5000 3550
Wire Wire Line
	5200 3550 5000 3550
Connection ~ 5000 4350
Wire Wire Line
	5200 3350 5000 3350
Connection ~ 5000 3550
Wire Wire Line
	5200 3150 5100 3150
Wire Wire Line
	5100 3150 5100 2950
Connection ~ 5100 2950
$Comp
L pcdu-rescue:C-Device C1
U 1 1 59810B4C
P 4400 3100
AR Path="/5981037A/59810B4C" Ref="C1"  Part="1" 
AR Path="/5981D081/59810B4C" Ref="C12"  Part="1" 
AR Path="/5981E955/59810B4C" Ref="C19"  Part="1" 
AR Path="/597FA003/59810B4C" Ref="C34"  Part="1" 
F 0 "C34" H 4425 3200 50  0000 L CNN
F 1 "10uF" H 4425 3000 50  0000 L CNN
F 2 "" H 4438 2950 50  0000 C CNN
F 3 "" H 4400 3100 50  0000 C CNN
	1    4400 3100
	1    0    0    -1  
$EndComp
$Comp
L pcdu-rescue:GND-power #PWR9
U 1 1 59810BA1
P 4400 3250
AR Path="/5981037A/59810BA1" Ref="#PWR9"  Part="1" 
AR Path="/5981D081/59810BA1" Ref="#PWR29"  Part="1" 
AR Path="/5981E955/59810BA1" Ref="#PWR42"  Part="1" 
AR Path="/597FA003/59810BA1" Ref="#PWR64"  Part="1" 
F 0 "#PWR64" H 4400 3000 50  0001 C CNN
F 1 "GND" H 4400 3100 50  0000 C CNN
F 2 "" H 4400 3250 50  0000 C CNN
F 3 "" H 4400 3250 50  0000 C CNN
	1    4400 3250
	1    0    0    -1  
$EndComp
NoConn ~ 6700 3150
NoConn ~ 6700 3350
NoConn ~ 6700 3550
Wire Wire Line
	6700 2550 6900 2550
Wire Wire Line
	6900 2550 6900 2750
Wire Wire Line
	6900 2950 6700 2950
Wire Wire Line
	6700 2750 6900 2750
Connection ~ 6900 2750
$Comp
L pcdu-rescue:C-Device C2
U 1 1 59810D0B
P 7200 2900
AR Path="/5981037A/59810D0B" Ref="C2"  Part="1" 
AR Path="/5981D081/59810D0B" Ref="C13"  Part="1" 
AR Path="/5981E955/59810D0B" Ref="C20"  Part="1" 
AR Path="/597FA003/59810D0B" Ref="C35"  Part="1" 
F 0 "C35" H 7225 3000 50  0000 L CNN
F 1 "2.2uF" H 7225 2800 50  0000 L CNN
F 2 "" H 7238 2750 50  0000 C CNN
F 3 "" H 7200 2900 50  0000 C CNN
	1    7200 2900
	1    0    0    -1  
$EndComp
$Comp
L pcdu-rescue:C-Device C3
U 1 1 59810D73
P 7550 2900
AR Path="/5981037A/59810D73" Ref="C3"  Part="1" 
AR Path="/5981D081/59810D73" Ref="C14"  Part="1" 
AR Path="/5981E955/59810D73" Ref="C21"  Part="1" 
AR Path="/597FA003/59810D73" Ref="C36"  Part="1" 
F 0 "C36" H 7575 3000 50  0000 L CNN
F 1 "220uF" H 7575 2800 50  0000 L CNN
F 2 "" H 7588 2750 50  0000 C CNN
F 3 "" H 7550 2900 50  0000 C CNN
	1    7550 2900
	1    0    0    -1  
$EndComp
Wire Wire Line
	7550 3050 7200 3050
$Comp
L pcdu-rescue:GND-power #PWR12
U 1 1 59810DCA
P 7400 3050
AR Path="/5981037A/59810DCA" Ref="#PWR12"  Part="1" 
AR Path="/5981D081/59810DCA" Ref="#PWR32"  Part="1" 
AR Path="/5981E955/59810DCA" Ref="#PWR45"  Part="1" 
AR Path="/597FA003/59810DCA" Ref="#PWR67"  Part="1" 
F 0 "#PWR67" H 7400 2800 50  0001 C CNN
F 1 "GND" H 7400 2900 50  0000 C CNN
F 2 "" H 7400 3050 50  0000 C CNN
F 3 "" H 7400 3050 50  0000 C CNN
	1    7400 3050
	1    0    0    -1  
$EndComp
Connection ~ 7200 2750
$Comp
L pcdu-rescue:PWR_FLAG-power #FLG4
U 1 1 5985F2AA
P 5000 2550
AR Path="/5981037A/5985F2AA" Ref="#FLG4"  Part="1" 
AR Path="/5981D081/5985F2AA" Ref="#FLG7"  Part="1" 
AR Path="/5981E955/5985F2AA" Ref="#FLG10"  Part="1" 
AR Path="/597FA003/5985F2AA" Ref="#FLG17"  Part="1" 
F 0 "#FLG17" H 5000 2645 50  0001 C CNN
F 1 "PWR_FLAG" H 5000 2730 50  0000 C CNN
F 2 "" H 5000 2550 50  0000 C CNN
F 3 "" H 5000 2550 50  0000 C CNN
	1    5000 2550
	1    0    0    -1  
$EndComp
$Comp
L pcdu-rescue:L-Device L1
U 1 1 598E0758
P 4700 2700
AR Path="/5981037A/598E0758" Ref="L1"  Part="1" 
AR Path="/5981D081/598E0758" Ref="L2"  Part="1" 
AR Path="/5981E955/598E0758" Ref="L3"  Part="1" 
AR Path="/597FA003/598E0758" Ref="L4"  Part="1" 
F 0 "L4" V 4650 2700 50  0000 C CNN
F 1 "6.8uH" V 4775 2700 50  0000 C CNN
F 2 "" H 4700 2700 50  0000 C CNN
F 3 "" H 4700 2700 50  0000 C CNN
	1    4700 2700
	1    0    0    -1  
$EndComp
Wire Wire Line
	4700 2850 4700 2950
Connection ~ 4700 2950
Wire Wire Line
	6850 3950 6850 4150
Wire Wire Line
	6850 4150 6850 4350
Wire Wire Line
	6850 4350 6850 4450
Wire Wire Line
	5000 4350 5000 4450
Wire Wire Line
	5000 3550 5000 4350
Wire Wire Line
	5100 2950 5200 2950
Wire Wire Line
	6900 2750 6900 2950
Wire Wire Line
	4700 2950 5100 2950
Wire Wire Line
	4700 2550 5200 2550
Wire Wire Line
	3550 2950 4700 2950
Wire Wire Line
	6900 2750 7200 2750
Wire Wire Line
	7200 2750 7850 2750
$EndSCHEMATC
