EESchema Schematic File Version 2
LIBS:power
LIBS:device
LIBS:transistors
LIBS:conn
LIBS:linear
LIBS:regul
LIBS:74xx
LIBS:cmos4000
LIBS:adc-dac
LIBS:memory
LIBS:xilinx
LIBS:microcontrollers
LIBS:dsp
LIBS:microchip
LIBS:analog_switches
LIBS:motorola
LIBS:texas
LIBS:intel
LIBS:audio
LIBS:interface
LIBS:digital-audio
LIBS:philips
LIBS:display
LIBS:cypress
LIBS:siliconi
LIBS:opto
LIBS:atmel
LIBS:contrib
LIBS:valves
LIBS:mylib
LIBS:pcdu-cache
EELAYER 25 0
EELAYER END
$Descr A4 11693 8268
encoding utf-8
Sheet 2 2
Title ""
Date ""
Rev ""
Comp ""
Comment1 ""
Comment2 ""
Comment3 ""
Comment4 ""
$EndDescr
$Comp
L ATMEGA16M1-A IC?
U 1 1 598751F6
P 2500 3850
F 0 "IC?" H 1550 5680 50  0000 L BNN
F 1 "ATMEGA16M1-A" H 3000 2450 50  0000 L BNN
F 2 "Housings_QFP:TQFP-32_7x7mm_Pitch0.8mm" H 2500 3850 50  0000 C CIN
F 3 "" H 2500 3850 50  0000 C CNN
	1    2500 3850
	1    0    0    -1  
$EndComp
$Comp
L GND #PWR?
U 1 1 598751FD
P 1300 5200
F 0 "#PWR?" H 1300 4950 50  0001 C CNN
F 1 "GND" H 1300 5050 50  0000 C CNN
F 2 "" H 1300 5200 50  0000 C CNN
F 3 "" H 1300 5200 50  0000 C CNN
	1    1300 5200
	1    0    0    -1  
$EndComp
$Comp
L CONN_01X06 ISP?
U 1 1 59875203
P 4950 4350
F 0 "ISP?" H 4950 4700 50  0000 C CNN
F 1 "CONN_01X06" V 5050 4350 50  0000 C CNN
F 2 "Connectors_JST:JST_GH_BM06B-GHS-TBT_06x1.25mm_Straight" H 4950 4350 50  0001 C CNN
F 3 "" H 4950 4350 50  0000 C CNN
	1    4950 4350
	1    0    0    -1  
$EndComp
$Comp
L GND #PWR?
U 1 1 5987520A
P 4650 4700
F 0 "#PWR?" H 4650 4450 50  0001 C CNN
F 1 "GND" H 4650 4550 50  0000 C CNN
F 2 "" H 4650 4700 50  0000 C CNN
F 3 "" H 4650 4700 50  0000 C CNN
	1    4650 4700
	1    0    0    -1  
$EndComp
$Comp
L C_Small C?
U 1 1 59875210
P 1000 2600
F 0 "C?" H 1010 2670 50  0000 L CNN
F 1 "x uF" H 1010 2520 50  0000 L CNN
F 2 "Capacitors_SMD:C_0603" H 1000 2600 50  0001 C CNN
F 3 "" H 1000 2600 50  0000 C CNN
	1    1000 2600
	1    0    0    -1  
$EndComp
$Comp
L GND #PWR?
U 1 1 59875217
P 1000 2850
F 0 "#PWR?" H 1000 2600 50  0001 C CNN
F 1 "GND" H 1000 2700 50  0000 C CNN
F 2 "" H 1000 2850 50  0000 C CNN
F 3 "" H 1000 2850 50  0000 C CNN
	1    1000 2850
	1    0    0    -1  
$EndComp
NoConn ~ 3600 5050
NoConn ~ 3600 4950
NoConn ~ 3600 4650
NoConn ~ 3600 4550
NoConn ~ 3600 4450
NoConn ~ 3600 3950
NoConn ~ 3600 3650
NoConn ~ 3600 3550
NoConn ~ 3600 3450
NoConn ~ 3600 3150
NoConn ~ 3600 3050
NoConn ~ 3600 2850
NoConn ~ 3600 2750
NoConn ~ 3600 2650
NoConn ~ 3600 2600
NoConn ~ 3600 2550
NoConn ~ 1400 2850
Text GLabel 3950 4250 2    60   Input ~ 0
GPS_TX
Text GLabel 3750 4050 2    60   Input ~ 0
GPS_EN
Text GLabel 3700 3250 2    60   Input ~ 0
TX_CAN
Text GLabel 3700 3350 2    60   Input ~ 0
RX_CAN
Text GLabel 3700 2250 2    59   Input ~ 0
CAN1_STBY
Text GLabel 3700 2350 2    59   Input ~ 0
CAN_SEL
Text GLabel 3700 2450 2    59   Input ~ 0
CAN2_STBY
Text GLabel 4450 3650 2    59   Input ~ 0
~GPS_OC
$Comp
L R_Small R?
U 1 1 59875236
P 4350 3500
F 0 "R?" H 4380 3520 50  0000 L CNN
F 1 "10k" H 4380 3460 50  0000 L CNN
F 2 "Resistors_SMD:R_0603_HandSoldering" H 4350 3500 50  0001 C CNN
F 3 "" H 4350 3500 50  0000 C CNN
	1    4350 3500
	1    0    0    -1  
$EndComp
$Comp
L +3.3V #PWR?
U 1 1 5987523D
P 1300 2000
F 0 "#PWR?" H 1300 1850 50  0001 C CNN
F 1 "+3.3V" H 1300 2140 50  0000 C CNN
F 2 "" H 1300 2000 50  0000 C CNN
F 3 "" H 1300 2000 50  0000 C CNN
	1    1300 2000
	1    0    0    -1  
$EndComp
$Comp
L R_Small R?
U 1 1 59875243
P 4350 2000
F 0 "R?" H 4380 2020 50  0000 L CNN
F 1 "1k" H 4380 1960 50  0000 L CNN
F 2 "Resistors_SMD:R_0603_HandSoldering" H 4350 2000 50  0001 C CNN
F 3 "" H 4350 2000 50  0000 C CNN
	1    4350 2000
	0    1    1    0   
$EndComp
$Comp
L LED_Small D?
U 1 1 5987524A
P 4000 2000
F 0 "D?" H 3950 2125 50  0000 L CNN
F 1 "Led_Small" H 3825 1900 50  0000 L CNN
F 2 "LEDs:LED_0805" V 4000 2000 50  0001 C CNN
F 3 "" V 4000 2000 50  0000 C CNN
	1    4000 2000
	-1   0    0    -1  
$EndComp
$Comp
L GND #PWR?
U 1 1 59875251
P 4550 2000
F 0 "#PWR?" H 4550 1750 50  0001 C CNN
F 1 "GND" H 4550 1850 50  0000 C CNN
F 2 "" H 4550 2000 50  0000 C CNN
F 3 "" H 4550 2000 50  0000 C CNN
	1    4550 2000
	0    -1   -1   0   
$EndComp
$Comp
L +3.3V #PWR?
U 1 1 59875257
P 4350 3350
F 0 "#PWR?" H 4350 3200 50  0001 C CNN
F 1 "+3.3V" H 4350 3490 50  0000 C CNN
F 2 "" H 4350 3350 50  0000 C CNN
F 3 "" H 4350 3350 50  0000 C CNN
	1    4350 3350
	1    0    0    -1  
$EndComp
$Comp
L +3.3V #PWR?
U 1 1 5987525D
P 4650 4000
F 0 "#PWR?" H 4650 3850 50  0001 C CNN
F 1 "+3.3V" H 4650 4140 50  0000 C CNN
F 2 "" H 4650 4000 50  0000 C CNN
F 3 "" H 4650 4000 50  0000 C CNN
	1    4650 4000
	1    0    0    -1  
$EndComp
$Comp
L CONN_01X04 P?
U 1 1 59875263
P 5500 4350
F 0 "P?" H 5500 4600 50  0000 C CNN
F 1 "CONN_01X04" V 5600 4350 50  0000 C CNN
F 2 "Connectors_JST:JST_GH_BM04B-GHS-TBT_04x1.25mm_Straight" H 5500 4350 50  0001 C CNN
F 3 "" H 5500 4350 50  0000 C CNN
	1    5500 4350
	1    0    0    -1  
$EndComp
Wire Wire Line
	1400 5050 1300 5050
Connection ~ 1300 5050
Wire Wire Line
	1300 2450 1400 2450
Wire Wire Line
	1300 2000 1300 2450
Wire Wire Line
	1000 2150 1400 2150
Connection ~ 1300 2150
Wire Wire Line
	3700 2450 3600 2450
Wire Wire Line
	3600 2250 3700 2250
Wire Wire Line
	3700 3350 3600 3350
Wire Wire Line
	3600 3250 3700 3250
Wire Wire Line
	3600 4050 3750 4050
Wire Wire Line
	3700 2350 3600 2350
Wire Wire Line
	3600 4150 4450 4150
Wire Wire Line
	4450 4150 4450 4100
Wire Wire Line
	4450 4100 4750 4100
Wire Wire Line
	4650 4200 5300 4200
Wire Wire Line
	3750 4400 5200 4400
Wire Wire Line
	3600 4850 4450 4850
Wire Wire Line
	4450 4850 4450 4500
Wire Wire Line
	4450 4500 4750 4500
Wire Wire Line
	4650 4700 4650 4600
Wire Wire Line
	4650 4600 5300 4600
Wire Wire Line
	1000 2850 1000 2700
Wire Wire Line
	1000 2150 1000 2500
Wire Wire Line
	3750 4400 3750 4250
Wire Wire Line
	3750 4250 3600 4250
Wire Wire Line
	3900 4350 3600 4350
Wire Wire Line
	3900 4300 5100 4300
Wire Wire Line
	3900 4250 3900 4350
Wire Wire Line
	3950 4250 3900 4250
Connection ~ 3900 4300
Wire Wire Line
	4350 3750 3600 3750
Wire Wire Line
	4350 3600 4350 3750
Connection ~ 4350 3650
Wire Wire Line
	4350 3350 4350 3400
Wire Wire Line
	4350 3650 4450 3650
Wire Wire Line
	4650 4200 4650 4000
Wire Wire Line
	3600 2150 3750 2150
Wire Wire Line
	3750 2150 3750 2000
Wire Wire Line
	3750 2000 3900 2000
Wire Wire Line
	4100 2000 4250 2000
Wire Wire Line
	4450 2000 4550 2000
Wire Wire Line
	5300 4600 5300 4500
Connection ~ 4750 4600
Connection ~ 4750 4200
Wire Wire Line
	5200 4400 5200 4300
Wire Wire Line
	5200 4300 5300 4300
Connection ~ 4750 4400
Wire Wire Line
	5100 4300 5100 4450
Wire Wire Line
	5100 4450 5250 4450
Wire Wire Line
	5250 4450 5250 4400
Wire Wire Line
	5250 4400 5300 4400
Connection ~ 4750 4300
Wire Wire Line
	1400 4650 1300 4650
Wire Wire Line
	1300 4650 1300 5200
$Comp
L ATA6561 U?
U 1 1 598755C2
P 9300 3550
F 0 "U?" H 8950 3950 60  0000 C CNN
F 1 "ATA6561" H 9200 3600 60  0000 C CNN
F 2 "Power_Integrations:SO-8" H 9300 3600 60  0001 C CNN
F 3 "" H 9300 3600 60  0001 C CNN
	1    9300 3550
	1    0    0    -1  
$EndComp
$Comp
L ATA6561 U?
U 1 1 598755C9
P 9350 5100
F 0 "U?" H 9000 5500 60  0000 C CNN
F 1 "ATA6561" H 9250 5150 60  0000 C CNN
F 2 "Power_Integrations:SO-8" H 9350 5150 60  0001 C CNN
F 3 "" H 9350 5150 60  0001 C CNN
	1    9350 5100
	1    0    0    -1  
$EndComp
$Comp
L GND #PWR?
U 1 1 598755D0
P 9350 5650
F 0 "#PWR?" H 9350 5400 50  0001 C CNN
F 1 "GND" H 9350 5500 50  0000 C CNN
F 2 "" H 9350 5650 50  0000 C CNN
F 3 "" H 9350 5650 50  0000 C CNN
	1    9350 5650
	1    0    0    -1  
$EndComp
$Comp
L GND #PWR?
U 1 1 598755D6
P 9300 4050
F 0 "#PWR?" H 9300 3800 50  0001 C CNN
F 1 "GND" H 9300 3900 50  0000 C CNN
F 2 "" H 9300 4050 50  0000 C CNN
F 3 "" H 9300 4050 50  0000 C CNN
	1    9300 4050
	1    0    0    -1  
$EndComp
Text GLabel 10100 3450 2    60   Input ~ 0
CAN1_H
Text GLabel 10100 3650 2    60   Input ~ 0
CAN1_L
Text GLabel 10150 5000 2    60   BiDi ~ 0
CAN2_H
Text GLabel 10150 5200 2    60   BiDi ~ 0
CAN2_L
$Comp
L +5V #PWR?
U 1 1 598755E0
P 9450 2900
F 0 "#PWR?" H 9450 2750 50  0001 C CNN
F 1 "+5V" H 9450 3040 50  0000 C CNN
F 2 "" H 9450 2900 50  0000 C CNN
F 3 "" H 9450 2900 50  0000 C CNN
	1    9450 2900
	1    0    0    -1  
$EndComp
$Comp
L +5V #PWR?
U 1 1 598755E6
P 9500 4450
F 0 "#PWR?" H 9500 4300 50  0001 C CNN
F 1 "+5V" H 9500 4590 50  0000 C CNN
F 2 "" H 9500 4450 50  0000 C CNN
F 3 "" H 9500 4450 50  0000 C CNN
	1    9500 4450
	1    0    0    -1  
$EndComp
$Comp
L ADG787 U?
U 1 1 598755EC
P 7450 4100
F 0 "U?" H 7850 4700 60  0000 C CNN
F 1 "ADG787" H 7750 4600 60  0000 C CNN
F 2 "Housings_SSOP:MSOP-10_3x3mm_Pitch0.5mm" H 7450 4100 60  0001 C CNN
F 3 "http://www.analog.com/media/en/technical-documentation/data-sheets/ADG787.pdf" H 7250 4650 60  0001 C CNN
	1    7450 4100
	-1   0    0    -1  
$EndComp
$Comp
L GND #PWR?
U 1 1 598755F3
P 7350 4700
F 0 "#PWR?" H 7350 4450 50  0001 C CNN
F 1 "GND" H 7350 4550 50  0000 C CNN
F 2 "" H 7350 4700 50  0000 C CNN
F 3 "" H 7350 4700 50  0000 C CNN
	1    7350 4700
	1    0    0    -1  
$EndComp
Text GLabel 6200 4050 0    59   Input ~ 0
CAN_SEL
Text GLabel 6950 3950 0    60   Input ~ 0
TX_CAN
Text GLabel 6950 4300 0    60   Input ~ 0
RX_CAN
Text GLabel 8650 3350 0    59   Input ~ 0
CAN1_STBY
Text GLabel 8650 4900 0    59   Input ~ 0
CAN2_STBY
$Comp
L C_Small C?
U 1 1 5987560F
P 6850 5350
F 0 "C?" H 6860 5420 50  0000 L CNN
F 1 "1uF" H 6860 5270 50  0000 L CNN
F 2 "Capacitors_SMD:C_0603" H 6850 5350 50  0001 C CNN
F 3 "" H 6850 5350 50  0000 C CNN
	1    6850 5350
	1    0    0    -1  
$EndComp
$Comp
L C_Small C?
U 1 1 59875616
P 7050 5350
F 0 "C?" H 7060 5420 50  0000 L CNN
F 1 "1uF" H 7060 5270 50  0000 L CNN
F 2 "Capacitors_SMD:C_0603" H 7050 5350 50  0001 C CNN
F 3 "" H 7050 5350 50  0000 C CNN
	1    7050 5350
	1    0    0    -1  
$EndComp
$Comp
L GND #PWR?
U 1 1 5987561D
P 6850 5600
F 0 "#PWR?" H 6850 5350 50  0001 C CNN
F 1 "GND" H 6850 5450 50  0000 C CNN
F 2 "" H 6850 5600 50  0000 C CNN
F 3 "" H 6850 5600 50  0000 C CNN
	1    6850 5600
	1    0    0    -1  
$EndComp
$Comp
L +5V #PWR?
U 1 1 59875623
P 6850 5100
F 0 "#PWR?" H 6850 4950 50  0001 C CNN
F 1 "+5V" H 6850 5240 50  0000 C CNN
F 2 "" H 6850 5100 50  0000 C CNN
F 3 "" H 6850 5100 50  0000 C CNN
	1    6850 5100
	1    0    0    -1  
$EndComp
$Comp
L C_Small C?
U 1 1 59875629
P 6650 5350
F 0 "C?" H 6660 5420 50  0000 L CNN
F 1 "1uF" H 6660 5270 50  0000 L CNN
F 2 "Capacitors_SMD:C_0603" H 6650 5350 50  0001 C CNN
F 3 "" H 6650 5350 50  0000 C CNN
	1    6650 5350
	1    0    0    -1  
$EndComp
$Comp
L +3.3V #PWR?
U 1 1 59875630
P 7450 3500
F 0 "#PWR?" H 7450 3350 50  0001 C CNN
F 1 "+3.3V" H 7450 3640 50  0000 C CNN
F 2 "" H 7450 3500 50  0000 C CNN
F 3 "" H 7450 3500 50  0000 C CNN
	1    7450 3500
	1    0    0    -1  
$EndComp
$Comp
L +3.3V #PWR?
U 1 1 59875636
P 9250 2900
F 0 "#PWR?" H 9250 2750 50  0001 C CNN
F 1 "+3.3V" H 9250 3040 50  0000 C CNN
F 2 "" H 9250 2900 50  0000 C CNN
F 3 "" H 9250 2900 50  0000 C CNN
	1    9250 2900
	1    0    0    -1  
$EndComp
$Comp
L +3.3V #PWR?
U 1 1 5987563C
P 9300 4450
F 0 "#PWR?" H 9300 4300 50  0001 C CNN
F 1 "+3.3V" H 9300 4590 50  0000 C CNN
F 2 "" H 9300 4450 50  0000 C CNN
F 3 "" H 9300 4450 50  0000 C CNN
	1    9300 4450
	1    0    0    -1  
$EndComp
$Comp
L +3.3V #PWR?
U 1 1 59875642
P 6650 5100
F 0 "#PWR?" H 6650 4950 50  0001 C CNN
F 1 "+3.3V" H 6650 5240 50  0000 C CNN
F 2 "" H 6650 5100 50  0000 C CNN
F 3 "" H 6650 5100 50  0000 C CNN
	1    6650 5100
	1    0    0    -1  
$EndComp
Wire Wire Line
	9350 5650 9350 5550
Wire Wire Line
	9300 4050 9300 4000
Wire Wire Line
	9900 3600 10000 3600
Wire Wire Line
	10000 3600 10000 3650
Wire Wire Line
	10000 3650 10100 3650
Wire Wire Line
	9900 3500 10000 3500
Wire Wire Line
	10000 3500 10000 3450
Wire Wire Line
	10000 3450 10100 3450
Wire Wire Line
	9950 5050 10050 5050
Wire Wire Line
	10050 5050 10050 5000
Wire Wire Line
	10050 5000 10150 5000
Wire Wire Line
	10150 5200 10050 5200
Wire Wire Line
	10050 5200 10050 5150
Wire Wire Line
	10050 5150 9950 5150
Wire Wire Line
	9300 4450 9300 4550
Wire Wire Line
	9250 3000 9250 2900
Wire Wire Line
	8750 4900 8650 4900
Wire Wire Line
	8700 3350 8650 3350
Wire Wire Line
	7800 4350 7900 4350
Wire Wire Line
	7900 4350 7900 5250
Wire Wire Line
	7900 5250 8750 5250
Wire Wire Line
	7800 4000 7950 4000
Wire Wire Line
	7950 4000 7950 5150
Wire Wire Line
	7950 5150 8750 5150
Wire Wire Line
	8550 4250 8550 3700
Wire Wire Line
	7800 4250 8550 4250
Wire Wire Line
	7800 3900 8450 3900
Wire Wire Line
	8450 3900 8450 3600
Wire Wire Line
	8450 3600 8700 3600
Wire Wire Line
	7350 4700 7350 4650
Wire Wire Line
	7450 3500 7450 3550
Wire Wire Line
	6200 4050 6450 4050
Wire Wire Line
	7000 4300 6950 4300
Wire Wire Line
	6950 3950 7000 3950
Wire Wire Line
	6450 3850 6450 4200
Connection ~ 6450 4050
Wire Wire Line
	6450 3850 7000 3850
Wire Wire Line
	6450 4200 7000 4200
Wire Wire Line
	6850 5100 6850 5250
Wire Wire Line
	7050 5150 7050 5250
Wire Wire Line
	7050 5500 7050 5450
Connection ~ 6850 5500
Wire Wire Line
	6650 5450 6650 5500
Wire Wire Line
	6650 5100 6650 5250
Wire Wire Line
	9500 4550 9500 4450
Wire Wire Line
	9450 2900 9450 3000
Wire Wire Line
	8550 3700 8700 3700
Wire Wire Line
	6650 5500 7050 5500
Wire Wire Line
	6850 5150 7050 5150
Connection ~ 6850 5150
Wire Wire Line
	6850 5450 6850 5600
$EndSCHEMATC
