EESchema Schematic File Version 4
LIBS:pcdu-cache
EELAYER 29 0
EELAYER END
$Descr A4 11693 8268
encoding utf-8
Sheet 1 35
Title "Main"
Date ""
Rev ""
Comp "LibreCube"
Comment1 ""
Comment2 ""
Comment3 ""
Comment4 ""
$EndDescr
$Comp
L pcdu-rescue:Conn_01x02_Male-Connector P1
U 1 1 597FA0C9
P 700 1050
F 0 "P1" H 700 1200 50  0000 C CNN
F 1 "CONN_01X02" V 800 1050 50  0000 C CNN
F 2 "" H 700 1050 50  0000 C CNN
F 3 "" H 700 1050 50  0000 C CNN
	1    700  1050
	1    0    0    -1  
$EndComp
$Comp
L pcdu-rescue:Conn_01x02_Male-Connector P2
U 1 1 597FA126
P 700 1600
F 0 "P2" H 700 1750 50  0000 C CNN
F 1 "CONN_01X02" V 800 1600 50  0000 C CNN
F 2 "" H 700 1600 50  0000 C CNN
F 3 "" H 700 1600 50  0000 C CNN
	1    700  1600
	1    0    0    -1  
$EndComp
$Comp
L pcdu-rescue:Conn_01x02_Male-Connector P3
U 1 1 597FA159
P 700 2150
F 0 "P3" H 700 2300 50  0000 C CNN
F 1 "CONN_01X02" V 800 2150 50  0000 C CNN
F 2 "" H 700 2150 50  0000 C CNN
F 3 "" H 700 2150 50  0000 C CNN
	1    700  2150
	1    0    0    -1  
$EndComp
$Comp
L pcdu-rescue:Conn_01x02_Male-Connector P4
U 1 1 597FA1B6
P 700 2700
F 0 "P4" H 700 2850 50  0000 C CNN
F 1 "CONN_01X02" V 800 2700 50  0000 C CNN
F 2 "" H 700 2700 50  0000 C CNN
F 3 "" H 700 2700 50  0000 C CNN
	1    700  2700
	1    0    0    -1  
$EndComp
$Comp
L pcdu-rescue:Conn_01x02_Male-Connector P5
U 1 1 597FA203
P 700 3250
F 0 "P5" H 700 3400 50  0000 C CNN
F 1 "CONN_01X02" V 800 3250 50  0000 C CNN
F 2 "" H 700 3250 50  0000 C CNN
F 3 "" H 700 3250 50  0000 C CNN
	1    700  3250
	1    0    0    -1  
$EndComp
$Comp
L pcdu-rescue:Conn_01x02_Male-Connector P6
U 1 1 597FA228
P 700 3800
F 0 "P6" H 700 3950 50  0000 C CNN
F 1 "CONN_01X02" V 800 3800 50  0000 C CNN
F 2 "" H 700 3800 50  0000 C CNN
F 3 "" H 700 3800 50  0000 C CNN
	1    700  3800
	1    0    0    -1  
$EndComp
Wire Wire Line
	800  3900 900  3900
Wire Wire Line
	800  1150 800  1700
Wire Wire Line
	900  3350 800  3350
Connection ~ 800  3900
Wire Wire Line
	800  2800 900  2800
Connection ~ 800  3350
Wire Wire Line
	800  2250 900  2250
Connection ~ 800  2800
Wire Wire Line
	800  1700 900  1700
Connection ~ 800  2250
Wire Wire Line
	800  1150 900  1150
Connection ~ 800  1700
$Comp
L pcdu-rescue:D_Schottky-Device D1
U 1 1 5980EA56
P 1850 950
F 0 "D1" H 1850 1050 50  0000 C CNN
F 1 "D_Schottky" H 1850 850 50  0000 C CNN
F 2 "" H 1850 950 50  0000 C CNN
F 3 "" H 1850 950 50  0000 C CNN
	1    1850 950 
	-1   0    0    -1  
$EndComp
$Comp
L pcdu-rescue:D_Schottky-Device D2
U 1 1 5980EB20
P 1850 1250
F 0 "D2" H 1850 1350 50  0000 C CNN
F 1 "D_Schottky" H 1850 1150 50  0000 C CNN
F 2 "" H 1850 1250 50  0000 C CNN
F 3 "" H 1850 1250 50  0000 C CNN
	1    1850 1250
	-1   0    0    -1  
$EndComp
$Comp
L pcdu-rescue:D_Schottky-Device D3
U 1 1 5980ED5C
P 1850 1500
F 0 "D3" H 1850 1600 50  0000 C CNN
F 1 "D_Schottky" H 1850 1400 50  0000 C CNN
F 2 "" H 1850 1500 50  0000 C CNN
F 3 "" H 1850 1500 50  0000 C CNN
	1    1850 1500
	-1   0    0    -1  
$EndComp
$Comp
L pcdu-rescue:D_Schottky-Device D4
U 1 1 5980ED62
P 1850 1800
F 0 "D4" H 1850 1900 50  0000 C CNN
F 1 "D_Schottky" H 1850 1700 50  0000 C CNN
F 2 "" H 1850 1800 50  0000 C CNN
F 3 "" H 1850 1800 50  0000 C CNN
	1    1850 1800
	-1   0    0    -1  
$EndComp
$Comp
L pcdu-rescue:D_Schottky-Device D5
U 1 1 5980EDC0
P 1850 2050
F 0 "D5" H 1850 2150 50  0000 C CNN
F 1 "D_Schottky" H 1850 1950 50  0000 C CNN
F 2 "" H 1850 2050 50  0000 C CNN
F 3 "" H 1850 2050 50  0000 C CNN
	1    1850 2050
	-1   0    0    -1  
$EndComp
$Comp
L pcdu-rescue:D_Schottky-Device D6
U 1 1 5980EDC6
P 1850 2350
F 0 "D6" H 1850 2450 50  0000 C CNN
F 1 "D_Schottky" H 1850 2250 50  0000 C CNN
F 2 "" H 1850 2350 50  0000 C CNN
F 3 "" H 1850 2350 50  0000 C CNN
	1    1850 2350
	-1   0    0    -1  
$EndComp
$Comp
L pcdu-rescue:D_Schottky-Device D7
U 1 1 5980EE90
P 1850 2600
F 0 "D7" H 1850 2700 50  0000 C CNN
F 1 "D_Schottky" H 1850 2500 50  0000 C CNN
F 2 "" H 1850 2600 50  0000 C CNN
F 3 "" H 1850 2600 50  0000 C CNN
	1    1850 2600
	-1   0    0    -1  
$EndComp
$Comp
L pcdu-rescue:D_Schottky-Device D8
U 1 1 5980EE96
P 1850 2900
F 0 "D8" H 1850 3000 50  0000 C CNN
F 1 "D_Schottky" H 1850 2800 50  0000 C CNN
F 2 "" H 1850 2900 50  0000 C CNN
F 3 "" H 1850 2900 50  0000 C CNN
	1    1850 2900
	-1   0    0    -1  
$EndComp
Wire Wire Line
	1700 950  1700 1050
Wire Wire Line
	1700 1500 1700 1600
Wire Wire Line
	1700 2050 1700 2150
Wire Wire Line
	1700 2600 1700 2700
Wire Wire Line
	900  2700 1700 2700
Connection ~ 1700 2700
Wire Wire Line
	900  2150 1700 2150
Connection ~ 1700 2150
Wire Wire Line
	900  1600 1700 1600
Connection ~ 1700 1600
Wire Wire Line
	900  1050 1700 1050
Connection ~ 1700 1050
$Comp
L pcdu-rescue:D_Schottky-Device D9
U 1 1 5980F558
P 1850 3150
F 0 "D9" H 1850 3250 50  0000 C CNN
F 1 "D_Schottky" H 1850 3050 50  0000 C CNN
F 2 "" H 1850 3150 50  0000 C CNN
F 3 "" H 1850 3150 50  0000 C CNN
	1    1850 3150
	-1   0    0    -1  
$EndComp
$Comp
L pcdu-rescue:D_Schottky-Device D10
U 1 1 5980F55E
P 1850 3450
F 0 "D10" H 1850 3550 50  0000 C CNN
F 1 "D_Schottky" H 1850 3350 50  0000 C CNN
F 2 "" H 1850 3450 50  0000 C CNN
F 3 "" H 1850 3450 50  0000 C CNN
	1    1850 3450
	-1   0    0    -1  
$EndComp
$Comp
L pcdu-rescue:D_Schottky-Device D11
U 1 1 5980F564
P 1850 3700
F 0 "D11" H 1850 3800 50  0000 C CNN
F 1 "D_Schottky" H 1850 3600 50  0000 C CNN
F 2 "" H 1850 3700 50  0000 C CNN
F 3 "" H 1850 3700 50  0000 C CNN
	1    1850 3700
	-1   0    0    -1  
$EndComp
$Comp
L pcdu-rescue:D_Schottky-Device D12
U 1 1 5980F56A
P 1850 4000
F 0 "D12" H 1850 4100 50  0000 C CNN
F 1 "D_Schottky" H 1850 3900 50  0000 C CNN
F 2 "" H 1850 4000 50  0000 C CNN
F 3 "" H 1850 4000 50  0000 C CNN
	1    1850 4000
	-1   0    0    -1  
$EndComp
Wire Wire Line
	1700 3150 1700 3250
Wire Wire Line
	1700 3700 1700 3800
Wire Wire Line
	900  3800 1700 3800
Connection ~ 1700 3800
Wire Wire Line
	900  3250 1700 3250
Connection ~ 1700 3250
Wire Wire Line
	2000 950  2000 1050
Wire Wire Line
	2000 1500 2000 1600
Wire Wire Line
	2000 2050 2000 2150
Wire Wire Line
	2000 2600 2000 2700
Wire Wire Line
	2000 3150 2000 3250
Wire Wire Line
	2000 3700 2000 3800
Wire Wire Line
	2000 1050 2200 1050
Wire Wire Line
	2200 1050 2200 1200
Wire Wire Line
	2200 3800 2000 3800
Connection ~ 2000 3800
Connection ~ 2000 1050
Wire Wire Line
	2000 3250 2200 3250
Connection ~ 2200 3250
Connection ~ 2000 3250
Wire Wire Line
	2000 2700 2200 2700
Connection ~ 2200 2700
Connection ~ 2000 2700
Wire Wire Line
	2000 2150 2200 2150
Connection ~ 2200 2150
Connection ~ 2000 2150
Wire Wire Line
	2000 1600 2200 1600
Connection ~ 2200 1600
Connection ~ 2000 1600
$Sheet
S 2450 1600 950  350 
U 5981037A
F0 "apr_b" 60
F1 "boost.sch" 60
F2 "IN" I L 2450 1750 60 
F3 "OUT" O R 3400 1800 60 
$EndSheet
$Comp
L pcdu-rescue:GND-power #PWR2
U 1 1 5981087B
P 900 7350
F 0 "#PWR2" H 900 7100 50  0001 C CNN
F 1 "GND" H 900 7200 50  0000 C CNN
F 2 "" H 900 7350 50  0000 C CNN
F 3 "" H 900 7350 50  0000 C CNN
	1    900  7350
	1    0    0    -1  
$EndComp
$Comp
L pcdu-rescue:PWR_FLAG-power #FLG1
U 1 1 598108CB
P 900 7350
F 0 "#FLG1" H 900 7445 50  0001 C CNN
F 1 "PWR_FLAG" H 900 7530 50  0000 C CNN
F 2 "" H 900 7350 50  0000 C CNN
F 3 "" H 900 7350 50  0000 C CNN
	1    900  7350
	1    0    0    -1  
$EndComp
Wire Wire Line
	3550 1800 3400 1800
Wire Wire Line
	3550 1250 3550 1800
Wire Wire Line
	3400 1250 3550 1250
Connection ~ 3550 1250
Text Label 5250 1250 0    60   ~ 0
Semi_regulated_bus
$Comp
L pcdu-rescue:D_Schottky-Device D13
U 1 1 598119EE
P 4850 1250
F 0 "D13" H 4850 1350 50  0000 C CNN
F 1 "D_Schottky" H 4850 1150 50  0000 C CNN
F 2 "" H 4850 1250 50  0000 C CNN
F 3 "" H 4850 1250 50  0000 C CNN
	1    4850 1250
	-1   0    0    -1  
$EndComp
$Comp
L pcdu-rescue:D_Schottky-Device D14
U 1 1 59811B8F
P 4850 1500
F 0 "D14" H 4850 1600 50  0000 C CNN
F 1 "D_Schottky" H 4850 1400 50  0000 C CNN
F 2 "" H 4850 1500 50  0000 C CNN
F 3 "" H 4850 1500 50  0000 C CNN
	1    4850 1500
	-1   0    0    -1  
$EndComp
Wire Wire Line
	4700 1250 4700 1500
$Sheet
S 3850 1950 950  350 
U 59811E48
F0 "bcr_a" 60
F1 "bcr.sch" 60
F2 "IN" I L 3850 2100 60 
F3 "OUT" O R 4800 2150 60 
$EndSheet
Wire Wire Line
	3700 1250 3700 2100
Connection ~ 3700 1250
$Comp
L pcdu-rescue:D_Schottky-Device D15
U 1 1 59811FA6
P 5200 1800
F 0 "D15" H 5200 1900 50  0000 C CNN
F 1 "D_Schottky" H 5200 1700 50  0000 C CNN
F 2 "" H 5200 1800 50  0000 C CNN
F 3 "" H 5200 1800 50  0000 C CNN
	1    5200 1800
	0    -1   1    0   
$EndComp
$Comp
L pcdu-rescue:D_Schottky-Device D16
U 1 1 5981207B
P 5450 1800
F 0 "D16" H 5450 1900 50  0000 C CNN
F 1 "D_Schottky" H 5450 1700 50  0000 C CNN
F 2 "" H 5450 1800 50  0000 C CNN
F 3 "" H 5450 1800 50  0000 C CNN
	1    5450 1800
	0    -1   1    0   
$EndComp
Wire Wire Line
	5450 1650 5200 1650
Wire Wire Line
	5000 1250 5200 1250
Wire Wire Line
	5200 1650 5200 1250
Connection ~ 5200 1250
Wire Wire Line
	3700 2100 3850 2100
Wire Wire Line
	4800 2150 5200 2150
Wire Wire Line
	5200 2700 5200 2150
Wire Wire Line
	5200 1950 5450 1950
Wire Wire Line
	5000 1500 5000 1250
$Sheet
S 3850 2500 950  350 
U 598129F4
F0 "bcr_b" 60
F1 "bcr.sch" 60
F2 "IN" I L 3850 2650 60 
F3 "OUT" O R 4800 2700 60 
$EndSheet
Wire Wire Line
	3700 2650 3850 2650
Connection ~ 3700 2100
Wire Wire Line
	4800 2700 4950 2700
Connection ~ 5200 2150
$Comp
L pcdu-rescue:Conn_01x02_Male-Connector P7
U 1 1 59812C31
P 5450 3100
F 0 "P7" H 5450 3250 50  0000 C CNN
F 1 "CONN_01X02" V 5550 3100 50  0000 C CNN
F 2 "" H 5450 3100 50  0000 C CNN
F 3 "" H 5450 3100 50  0000 C CNN
	1    5450 3100
	1    0    0    -1  
$EndComp
$Comp
L pcdu-rescue:Conn_01x02_Male-Connector P8
U 1 1 59812ED6
P 5450 3600
F 0 "P8" H 5450 3750 50  0000 C CNN
F 1 "CONN_01X02" V 5550 3600 50  0000 C CNN
F 2 "" H 5450 3600 50  0000 C CNN
F 3 "" H 5450 3600 50  0000 C CNN
	1    5450 3600
	1    0    0    -1  
$EndComp
$Comp
L pcdu-rescue:GND-power #PWR7
U 1 1 598133BF
P 5250 3650
F 0 "#PWR7" H 5250 3400 50  0001 C CNN
F 1 "GND" H 5250 3500 50  0000 C CNN
F 2 "" H 5250 3650 50  0000 C CNN
F 3 "" H 5250 3650 50  0000 C CNN
	1    5250 3650
	1    0    0    -1  
$EndComp
$Comp
L pcdu-rescue:GND-power #PWR6
U 1 1 598134D0
P 5250 3150
F 0 "#PWR6" H 5250 2900 50  0001 C CNN
F 1 "GND" H 5250 3000 50  0000 C CNN
F 2 "" H 5250 3150 50  0000 C CNN
F 3 "" H 5250 3150 50  0000 C CNN
	1    5250 3150
	1    0    0    -1  
$EndComp
Wire Wire Line
	4950 2700 4950 3050
Connection ~ 4950 2700
Connection ~ 4950 3050
$Sheet
S 7300 1100 700  300 
U 5981D081
F0 "mbr_a" 60
F1 "boost.sch" 60
F2 "IN" I L 7300 1200 60 
F3 "OUT" O R 8000 1300 60 
$EndSheet
$Sheet
S 6200 1150 650  850 
U 5981D798
F0 "sps" 60
F1 "sps.sch" 60
F2 "IN" I L 6200 1250 60 
F3 "OUT" I R 6850 1350 60 
F4 "S0" I L 6200 1400 60 
F5 "S2" I L 6200 1600 60 
F6 "S4" I L 6200 1800 60 
F7 "S1" I L 6200 1500 60 
F8 "S3" I L 6200 1700 60 
F9 "S5" I L 6200 1900 60 
$EndSheet
$Sheet
S 7300 1550 700  300 
U 5981E955
F0 "mbr_b" 60
F1 "boost.sch" 60
F2 "IN" I L 7300 1650 60 
F3 "OUT" O R 8000 1750 60 
$EndSheet
Wire Wire Line
	6850 1350 7050 1350
Wire Wire Line
	7050 1200 7050 1350
Wire Wire Line
	7050 1200 7300 1200
Wire Wire Line
	7050 1650 7300 1650
Connection ~ 7050 1350
Wire Wire Line
	8000 1750 8200 1750
Wire Wire Line
	8200 1750 8200 1300
Wire Wire Line
	8000 1300 8200 1300
Connection ~ 8200 1300
Text Label 8250 1300 0    60   ~ 0
Fully_regulated_bus
$Sheet
S 9450 1300 600  300 
U 59824968
F0 "fcl_1" 60
F1 "fcl.sch" 60
F2 "IN" I L 9450 1400 60 
F3 "OUT" O R 10050 1500 60 
$EndSheet
Wire Wire Line
	9250 1400 9450 1400
$Sheet
S 9450 1800 600  300 
U 5982788E
F0 "fcl_2" 60
F1 "fcl.sch" 60
F2 "IN" I L 9450 1900 60 
F3 "OUT" I R 10050 2000 60 
$EndSheet
Wire Wire Line
	8750 1900 9250 1900
$Sheet
S 9450 2350 750  400 
U 59829749
F0 "lcl_1" 60
F1 "lcl.sch" 60
F2 "IN" I L 9450 2450 60 
F3 "OUT" I R 10200 2550 60 
F4 "ON" I L 9450 2550 60 
$EndSheet
$Comp
L pcdu-rescue:VCC-power #PWR3
U 1 1 5982914F
P 1300 7350
F 0 "#PWR3" H 1300 7200 50  0001 C CNN
F 1 "VCC" H 1300 7500 50  0000 C CNN
F 2 "" H 1300 7350 50  0000 C CNN
F 3 "" H 1300 7350 50  0000 C CNN
	1    1300 7350
	1    0    0    -1  
$EndComp
$Comp
L pcdu-rescue:PWR_FLAG-power #FLG2
U 1 1 598293C7
P 1300 7350
F 0 "#FLG2" H 1300 7445 50  0001 C CNN
F 1 "PWR_FLAG" H 1300 7530 50  0000 C CNN
F 2 "" H 1300 7350 50  0000 C CNN
F 3 "" H 1300 7350 50  0000 C CNN
	1    1300 7350
	-1   0    0    1   
$EndComp
Wire Wire Line
	4950 3550 5250 3550
$Sheet
S 2450 1050 950  350 
U 597FA003
F0 "apr_a" 60
F1 "boost.sch" 60
F2 "IN" I L 2450 1200 60 
F3 "OUT" O R 3400 1250 60 
$EndSheet
$Sheet
S 9450 2950 750  400 
U 59841F95
F0 "lcl_2" 60
F1 "lcl.sch" 60
F2 "IN" I L 9450 3050 60 
F3 "OUT" I R 10200 3150 60 
F4 "ON" I L 9450 3150 60 
$EndSheet
$Sheet
S 9450 3550 750  400 
U 59845D4E
F0 "lcl_3" 60
F1 "lcl.sch" 60
F2 "IN" I L 9450 3650 60 
F3 "OUT" I R 10200 3750 60 
F4 "ON" I L 9450 3750 60 
$EndSheet
$Sheet
S 9450 4150 750  400 
U 59845ED6
F0 "lcl_4" 60
F1 "lcl.sch" 60
F2 "IN" I L 9450 4250 60 
F3 "OUT" I R 10200 4350 60 
F4 "ON" I L 9450 4350 60 
$EndSheet
$Sheet
S 9450 4750 750  400 
U 59846013
F0 "lcl_5" 60
F1 "lcl.sch" 60
F2 "IN" I L 9450 4850 60 
F3 "OUT" I R 10200 4950 60 
F4 "ON" I L 9450 4950 60 
$EndSheet
Text Label 10250 2550 0    60   ~ 0
LCL1_OUT
Wire Wire Line
	10200 2550 10650 2550
Text Label 10250 3150 0    60   ~ 0
LCL2_OUT
Wire Wire Line
	10200 3150 10650 3150
Text Label 10250 3750 0    60   ~ 0
LCL3_OUT
Wire Wire Line
	10200 3750 10650 3750
Text Label 10250 4350 0    60   ~ 0
LCL4_OUT
Wire Wire Line
	10200 4350 10650 4350
Text Label 10250 4950 0    60   ~ 0
LCL5_OUT
Wire Wire Line
	10200 4950 10650 4950
Text Label 9000 2550 0    60   ~ 0
LCL1_ON
Wire Wire Line
	9000 2550 9450 2550
Text Label 9000 3150 0    60   ~ 0
LCL2_ON
Wire Wire Line
	9000 3150 9450 3150
Text Label 9000 3750 0    60   ~ 0
LCL3_ON
Wire Wire Line
	9000 3750 9450 3750
Text Label 9000 4350 0    60   ~ 0
LCL4_ON
Wire Wire Line
	9000 4350 9450 4350
Text Label 9000 4950 0    60   ~ 0
LCL5_ON
Wire Wire Line
	9000 4950 9450 4950
Wire Wire Line
	8750 1900 8750 2450
Wire Wire Line
	8750 2450 9450 2450
Wire Wire Line
	8750 3050 9450 3050
Connection ~ 8750 2450
Wire Wire Line
	8750 3650 9450 3650
Connection ~ 8750 3050
Wire Wire Line
	8750 4250 9450 4250
Connection ~ 8750 3650
Wire Wire Line
	8750 4850 9450 4850
Connection ~ 8750 4250
Text Label 10100 1500 0    60   ~ 0
FCL1_OUT
Wire Wire Line
	10050 1500 10500 1500
Text Label 10100 2000 0    60   ~ 0
FCL2_OUT
Wire Wire Line
	10050 2000 10500 2000
Wire Wire Line
	2200 1200 2350 1200
Connection ~ 2200 1200
Wire Wire Line
	2350 1200 2350 1750
Wire Wire Line
	2350 1750 2450 1750
Connection ~ 2350 1200
Connection ~ 9250 1400
Connection ~ 9250 1300
Wire Wire Line
	9250 1050 9250 1300
Connection ~ 9250 1900
$Sheet
S 4750 5400 900  1750
U 59848DD8
F0 "cbc" 60
F1 "cbc.sch" 60
F2 "CAN_A_L" I L 4750 5500 60 
F3 "CAN_A_H" I L 4750 5600 60 
F4 "CAN_B_L" I L 4750 5700 60 
F5 "CAN_B_H" I L 4750 5800 60 
F6 "FCL1" I L 4750 6000 60 
F7 "FCL2" I L 4750 6100 60 
F8 "LCL1" I L 4750 6250 60 
F9 "LCL2" I L 4750 6350 60 
F10 "LCL3" I L 4750 6450 60 
F11 "LCL4" I L 4750 6550 60 
F12 "LCL5" I L 4750 6650 60 
F13 "S0" I R 5650 6250 60 
F14 "S1" I R 5650 6350 60 
F15 "S2" I R 5650 6450 60 
F16 "S3" I R 5650 6550 60 
F17 "S4" I R 5650 6650 60 
F18 "S5" I R 5650 6750 60 
F19 "CHARGE" I L 4750 6850 60 
F20 "SEL_PCDU_RT_A" I R 5650 6950 60 
F21 "SEL_PCDU_RT_B" I R 5650 7050 60 
$EndSheet
$Comp
L pcdu-rescue:+5V-power #PWR8
U 1 1 598498D0
P 9250 1050
F 0 "#PWR8" H 9250 900 50  0001 C CNN
F 1 "+5V" H 9250 1190 50  0000 C CNN
F 2 "" H 9250 1050 50  0000 C CNN
F 3 "" H 9250 1050 50  0000 C CNN
	1    9250 1050
	1    0    0    -1  
$EndComp
$Comp
L pcdu-rescue:+BATT-power #PWR5
U 1 1 5984A3BF
P 5250 3050
F 0 "#PWR5" H 5250 2900 50  0001 C CNN
F 1 "+BATT" H 5250 3190 50  0000 C CNN
F 2 "" H 5250 3050 50  0000 C CNN
F 3 "" H 5250 3050 50  0000 C CNN
	1    5250 3050
	1    0    0    -1  
$EndComp
NoConn ~ 6200 1400
NoConn ~ 6200 1500
Text Label 5750 6450 0    60   ~ 0
S2
Text Label 5750 6550 0    60   ~ 0
S3
Text Label 5750 6650 0    60   ~ 0
S4
Text Label 5750 6750 0    60   ~ 0
S5
Wire Wire Line
	5850 6450 5650 6450
Wire Wire Line
	5850 6550 5650 6550
Wire Wire Line
	5850 6650 5650 6650
Wire Wire Line
	5850 6750 5650 6750
Text Label 6100 1600 2    60   ~ 0
S2
Text Label 6100 1700 2    60   ~ 0
S3
Text Label 6100 1800 2    60   ~ 0
S4
Text Label 6100 1900 2    60   ~ 0
S5
Wire Wire Line
	6000 1600 6200 1600
Wire Wire Line
	6000 1700 6200 1700
Wire Wire Line
	6000 1800 6200 1800
Wire Wire Line
	6000 1900 6200 1900
Text Label 4250 6250 0    60   ~ 0
LCL1_OUT
Text Label 4250 6350 0    60   ~ 0
LCL2_OUT
Text Label 4250 6450 0    60   ~ 0
LCL3_OUT
Text Label 4250 6550 0    60   ~ 0
LCL4_OUT
Text Label 4250 6650 0    60   ~ 0
LCL5_OUT
Wire Wire Line
	4200 6250 4750 6250
Wire Wire Line
	4200 6350 4750 6350
Wire Wire Line
	4200 6450 4750 6450
Wire Wire Line
	4200 6550 4750 6550
Wire Wire Line
	4200 6650 4750 6650
Text Label 4250 6850 0    60   ~ 0
CHARGE
Wire Wire Line
	4200 6850 4750 6850
Text Label 1700 4300 0    60   ~ 0
CHARGE
Wire Wire Line
	2200 4300 1650 4300
Connection ~ 2200 3800
Text Label 4250 6000 0    60   ~ 0
FCL1_OUT
Text Label 4250 6100 0    60   ~ 0
FCL2_OUT
Wire Wire Line
	4200 6000 4750 6000
Wire Wire Line
	4200 6100 4750 6100
Text Label 5750 6950 0    60   ~ 0
SEL_PCDU_RT_A
Text Label 5750 7050 0    60   ~ 0
SEL_PCDU_RT_B
Wire Wire Line
	6300 6950 5650 6950
Wire Wire Line
	6300 7050 5650 7050
Text Label 4250 5500 0    60   ~ 0
CAN_A_L
Text Label 4250 5600 0    60   ~ 0
CAN_A_H
Text Label 4250 5700 0    60   ~ 0
CAN_B_L
Text Label 4250 5800 0    60   ~ 0
CAN_B_H
Wire Wire Line
	4200 5500 4750 5500
Wire Wire Line
	4200 5600 4750 5600
Wire Wire Line
	4200 5700 4750 5700
Wire Wire Line
	4200 5800 4750 5800
$Sheet
S 1550 5400 1450 1050
U 598681C9
F0 "rtm" 60
F1 "rtm.sch" 60
F2 "SEL_PCDU_RT_A" I L 1550 5550 60 
F3 "SEL_PCDU_RT_B" I L 1550 5650 60 
F4 "CAN_A_L" I L 1550 5900 60 
F5 "CAN_A_H" I L 1550 6000 60 
F6 "CAN_B_L" I L 1550 6100 60 
F7 "CAN_B_H" I L 1550 6200 60 
F8 "LCL1_ON" I R 3000 5600 60 
F9 "LCL2_ON" I R 3000 5700 60 
F10 "LCL3_ON" I R 3000 5800 60 
F11 "LCL4_ON" I R 3000 5900 60 
F12 "LCL5_ON" I R 3000 6000 60 
$EndSheet
Text Label 1450 5550 2    60   ~ 0
SEL_PCDU_RT_A
Text Label 1450 5650 2    60   ~ 0
SEL_PCDU_RT_B
Wire Wire Line
	900  5550 1550 5550
Wire Wire Line
	900  5650 1550 5650
Text Label 3450 5600 2    60   ~ 0
LCL1_ON
Wire Wire Line
	3450 5600 3000 5600
Text Label 3450 5700 2    60   ~ 0
LCL2_ON
Wire Wire Line
	3450 5700 3000 5700
Text Label 3450 5800 2    60   ~ 0
LCL3_ON
Wire Wire Line
	3450 5800 3000 5800
Text Label 3450 5900 2    60   ~ 0
LCL4_ON
Wire Wire Line
	3450 5900 3000 5900
Text Label 3450 6000 2    60   ~ 0
LCL5_ON
Wire Wire Line
	3450 6000 3000 6000
Text Label 1050 5900 0    60   ~ 0
CAN_A_L
Text Label 1050 6000 0    60   ~ 0
CAN_A_H
Text Label 1050 6100 0    60   ~ 0
CAN_B_L
Text Label 1050 6200 0    60   ~ 0
CAN_B_H
Wire Wire Line
	1000 5900 1550 5900
Wire Wire Line
	1000 6000 1550 6000
Wire Wire Line
	1000 6100 1550 6100
Wire Wire Line
	1000 6200 1550 6200
$Comp
L pcdu-rescue:+5V-power #PWR4
U 1 1 59850F37
P 1700 7350
F 0 "#PWR4" H 1700 7200 50  0001 C CNN
F 1 "+5V" H 1700 7490 50  0000 C CNN
F 2 "" H 1700 7350 50  0000 C CNN
F 3 "" H 1700 7350 50  0000 C CNN
	1    1700 7350
	1    0    0    -1  
$EndComp
$Comp
L pcdu-rescue:PWR_FLAG-power #FLG3
U 1 1 59852420
P 1700 7350
F 0 "#FLG3" H 1700 7445 50  0001 C CNN
F 1 "PWR_FLAG" H 1700 7530 50  0000 C CNN
F 2 "" H 1700 7350 50  0000 C CNN
F 3 "" H 1700 7350 50  0000 C CNN
	1    1700 7350
	-1   0    0    1   
$EndComp
Wire Notes Line
	1500 650  8100 650 
Wire Notes Line
	8100 650  8100 4600
Wire Notes Line
	8100 4600 1500 4600
Wire Notes Line
	1500 4600 1500 650 
Text Notes 7150 4500 0    60   ~ 0
Power Control Unit\n
Text Notes 9750 5450 0    60   ~ 0
Power Distribution Unit\n
Wire Notes Line
	10950 5500 8500 5500
Wire Notes Line
	8500 5500 8500 650 
Wire Notes Line
	8500 650  10950 650 
Wire Notes Line
	10950 650  10950 5500
Wire Wire Line
	800  3900 800  4050
Wire Wire Line
	800  3350 800  3900
Wire Wire Line
	800  2800 800  3350
Wire Wire Line
	800  2250 800  2800
Wire Wire Line
	800  1700 800  2250
Wire Wire Line
	1700 2700 1700 2900
Wire Wire Line
	1700 2150 1700 2350
Wire Wire Line
	1700 1600 1700 1800
Wire Wire Line
	1700 1050 1700 1250
Wire Wire Line
	1700 3800 1700 4000
Wire Wire Line
	1700 3250 1700 3450
Wire Wire Line
	2000 3800 2000 4000
Wire Wire Line
	2000 1050 2000 1250
Wire Wire Line
	2200 3250 2200 3800
Wire Wire Line
	2000 3250 2000 3450
Wire Wire Line
	2200 2700 2200 3250
Wire Wire Line
	2000 2700 2000 2900
Wire Wire Line
	2200 2150 2200 2700
Wire Wire Line
	2000 2150 2000 2350
Wire Wire Line
	2200 1600 2200 2150
Wire Wire Line
	2000 1600 2000 1800
Wire Wire Line
	3550 1250 3700 1250
Wire Wire Line
	3700 1250 4700 1250
Wire Wire Line
	5200 1250 6200 1250
Wire Wire Line
	3700 2100 3700 2650
Wire Wire Line
	5200 2150 5200 1950
Wire Wire Line
	4950 2700 5200 2700
Wire Wire Line
	4950 3050 4950 3550
Wire Wire Line
	7050 1350 7050 1650
Wire Wire Line
	8200 1300 9250 1300
Wire Wire Line
	8750 2450 8750 3050
Wire Wire Line
	8750 3050 8750 3650
Wire Wire Line
	8750 3650 8750 4250
Wire Wire Line
	8750 4250 8750 4850
Wire Wire Line
	2200 1200 2200 1600
Wire Wire Line
	2350 1200 2450 1200
Wire Wire Line
	9250 1400 9250 1900
Wire Wire Line
	9250 1300 9250 1400
Wire Wire Line
	9250 1900 9450 1900
Wire Wire Line
	2200 3800 2200 4300
Wire Wire Line
	4950 3050 5250 3050
$Comp
L pcdu-rescue:GND-power #PWR?
U 1 1 5C805A3F
P 800 4050
F 0 "#PWR?" H 800 3800 50  0001 C CNN
F 1 "GND" H 805 3877 50  0000 C CNN
F 2 "" H 800 4050 50  0001 C CNN
F 3 "" H 800 4050 50  0001 C CNN
	1    800  4050
	1    0    0    -1  
$EndComp
$EndSCHEMATC
