EESchema Schematic File Version 4
LIBS:pcdu-cache
EELAYER 29 0
EELAYER END
$Descr A4 11693 8268
encoding utf-8
Sheet 34 35
Title ""
Date ""
Rev ""
Comp "LibreCube"
Comment1 ""
Comment2 ""
Comment3 ""
Comment4 ""
$EndDescr
$Comp
L pcdu-rescue:GND-power #PWR108
U 1 1 598751FD
P 1300 5200
AR Path="/598681C9/598773FA/598751FD" Ref="#PWR108"  Part="1" 
AR Path="/598681C9/5987B9DD/598751FD" Ref="#PWR118"  Part="1" 
F 0 "#PWR108" H 1300 4950 50  0001 C CNN
F 1 "GND" H 1300 5050 50  0000 C CNN
F 2 "" H 1300 5200 50  0000 C CNN
F 3 "" H 1300 5200 50  0000 C CNN
	1    1300 5200
	1    0    0    -1  
$EndComp
$Comp
L pcdu-rescue:Conn_01x06_Male-Connector ISP1
U 1 1 59875203
P 5000 4950
AR Path="/598681C9/598773FA/59875203" Ref="ISP1"  Part="1" 
AR Path="/598681C9/5987B9DD/59875203" Ref="ISP2"  Part="1" 
F 0 "ISP1" H 5000 5300 50  0000 C CNN
F 1 "CONN_01X06" V 5100 4950 50  0000 C CNN
F 2 "Connectors_JST:JST_GH_BM06B-GHS-TBT_06x1.25mm_Straight" H 5000 4950 50  0001 C CNN
F 3 "" H 5000 4950 50  0000 C CNN
	1    5000 4950
	-1   0    0    1   
$EndComp
$Comp
L pcdu-rescue:GND-power #PWR112
U 1 1 5987520A
P 4800 5150
AR Path="/598681C9/598773FA/5987520A" Ref="#PWR112"  Part="1" 
AR Path="/598681C9/5987B9DD/5987520A" Ref="#PWR122"  Part="1" 
F 0 "#PWR112" H 4800 4900 50  0001 C CNN
F 1 "GND" H 4800 5000 50  0000 C CNN
F 2 "" H 4800 5150 50  0000 C CNN
F 3 "" H 4800 5150 50  0000 C CNN
	1    4800 5150
	1    0    0    -1  
$EndComp
$Comp
L pcdu-rescue:C_Small-Device C55
U 1 1 59875210
P 1000 2250
AR Path="/598681C9/598773FA/59875210" Ref="C55"  Part="1" 
AR Path="/598681C9/5987B9DD/59875210" Ref="C57"  Part="1" 
F 0 "C55" H 1010 2320 50  0000 L CNN
F 1 "0.1uF" H 1010 2170 50  0000 L CNN
F 2 "Capacitors_SMD:C_0603" H 1000 2250 50  0001 C CNN
F 3 "" H 1000 2250 50  0000 C CNN
	1    1000 2250
	1    0    0    -1  
$EndComp
$Comp
L pcdu-rescue:GND-power #PWR107
U 1 1 59875217
P 1000 2350
AR Path="/598681C9/598773FA/59875217" Ref="#PWR107"  Part="1" 
AR Path="/598681C9/5987B9DD/59875217" Ref="#PWR117"  Part="1" 
F 0 "#PWR107" H 1000 2100 50  0001 C CNN
F 1 "GND" H 1000 2200 50  0000 C CNN
F 2 "" H 1000 2350 50  0000 C CNN
F 3 "" H 1000 2350 50  0000 C CNN
	1    1000 2350
	1    0    0    -1  
$EndComp
NoConn ~ 3600 5050
NoConn ~ 3600 4950
NoConn ~ 3600 4650
NoConn ~ 3600 4550
NoConn ~ 3600 4450
NoConn ~ 3600 3950
NoConn ~ 3600 3650
NoConn ~ 3600 3550
NoConn ~ 3600 3450
NoConn ~ 3600 3150
NoConn ~ 1400 2850
$Comp
L pcdu-rescue:GND-power #PWR111
U 1 1 59875251
P 4650 1800
AR Path="/598681C9/598773FA/59875251" Ref="#PWR111"  Part="1" 
AR Path="/598681C9/5987B9DD/59875251" Ref="#PWR121"  Part="1" 
F 0 "#PWR111" H 4650 1550 50  0001 C CNN
F 1 "GND" H 4650 1650 50  0000 C CNN
F 2 "" H 4650 1800 50  0000 C CNN
F 3 "" H 4650 1800 50  0000 C CNN
	1    4650 1800
	1    0    0    -1  
$EndComp
Wire Wire Line
	1400 5050 1300 5050
Connection ~ 1300 5050
Wire Wire Line
	1300 2450 1400 2450
Wire Wire Line
	1000 2150 1300 2150
Wire Wire Line
	3600 2450 4500 2450
Wire Wire Line
	3600 2250 4500 2250
Wire Wire Line
	3600 2350 4500 2350
Wire Wire Line
	3600 4150 4150 4150
Wire Wire Line
	4150 4150 4150 4650
Wire Wire Line
	4150 4650 4800 4650
Wire Wire Line
	3600 4850 3850 4850
Wire Wire Line
	3850 4850 3850 5050
Wire Wire Line
	3850 5050 4800 5050
Wire Wire Line
	3950 4950 3950 4250
Wire Wire Line
	3950 4250 3600 4250
Wire Wire Line
	4050 4350 3600 4350
Wire Wire Line
	3750 2150 3600 2150
Wire Wire Line
	1400 4650 1300 4650
Wire Wire Line
	1300 4650 1300 5050
$Comp
L pcdu-rescue:ATmega16M1-AU-MCU_Microchip_ATmega IC1
U 1 1 5984ED34
P 2500 3850
AR Path="/598681C9/598773FA/5984ED34" Ref="IC1"  Part="1" 
AR Path="/598681C9/5987B9DD/5984ED34" Ref="IC2"  Part="1" 
F 0 "IC1" H 1550 5680 50  0000 L BNN
F 1 "ATMEGA16M1-A" H 3000 2450 50  0000 L BNN
F 2 "TQFP32" H 2500 3850 50  0000 C CIN
F 3 "" H 2500 3850 50  0000 C CNN
	1    2500 3850
	1    0    0    -1  
$EndComp
Text HLabel 1400 1450 0    60   Input ~ 0
PWR_IN
Text Label 3700 3250 0    60   ~ 0
TXCAN
Text Label 3700 3350 0    60   ~ 0
RXCAN
Wire Wire Line
	4000 3250 3600 3250
Wire Wire Line
	4000 3350 3600 3350
NoConn ~ 3600 3750
NoConn ~ 3600 4050
Text HLabel 10100 4000 2    60   Input ~ 0
CAN_A_L
Text HLabel 10100 3800 2    60   Input ~ 0
CAN_A_H
Text HLabel 10100 5450 2    60   Input ~ 0
CAN_B_L
Text HLabel 10100 5250 2    60   Input ~ 0
CAN_B_H
Text HLabel 4000 2550 2    60   Input ~ 0
LCL1_ON
Text HLabel 4000 2650 2    60   Input ~ 0
LCL2_ON
Text HLabel 4000 2750 2    60   Input ~ 0
LCL3_ON
Text HLabel 4000 2850 2    60   Input ~ 0
LCL4_ON
Text HLabel 4000 3050 2    60   Input ~ 0
LCL5_ON
Wire Wire Line
	1300 2450 1300 2150
Connection ~ 1300 2150
Text Label 1450 1450 0    60   ~ 0
+3.3V
$Comp
L pcdu-rescue:PWR_FLAG-power #FLG27
U 1 1 5988DFC3
P 1950 1450
AR Path="/598681C9/598773FA/5988DFC3" Ref="#FLG27"  Part="1" 
AR Path="/598681C9/5987B9DD/5988DFC3" Ref="#FLG28"  Part="1" 
F 0 "#FLG27" H 1950 1545 50  0001 C CNN
F 1 "PWR_FLAG" H 1950 1630 50  0000 C CNN
F 2 "" H 1950 1450 50  0000 C CNN
F 3 "" H 1950 1450 50  0000 C CNN
	1    1950 1450
	1    0    0    -1  
$EndComp
Text Label 1000 2150 0    60   ~ 0
+3.3V
$Comp
L pcdu-rescue:ADG787-mylib U28
U 1 1 5988E8EE
P 7300 4700
AR Path="/598681C9/598773FA/5988E8EE" Ref="U28"  Part="1" 
AR Path="/598681C9/5987B9DD/5988E8EE" Ref="U31"  Part="1" 
F 0 "U28" H 6950 5300 60  0000 C CNN
F 1 "ADG787" H 7050 5200 60  0000 C CNN
F 2 "" H 7400 4650 60  0001 C CNN
F 3 "http://www.analog.com/media/en/technical-documentation/data-sheets/ADG787.pdf" H 6650 4000 60  0001 C CNN
	1    7300 4700
	-1   0    0    -1  
$EndComp
Text Label 6450 4550 0    60   ~ 0
TXCAN
Text Label 6450 4900 0    60   ~ 0
RXCAN
Wire Wire Line
	6850 4550 6450 4550
Wire Wire Line
	6850 4900 6450 4900
Wire Wire Line
	6850 4450 6300 4450
Wire Wire Line
	6300 4450 6300 4650
Wire Wire Line
	6300 4800 6850 4800
Text Label 5900 4650 0    60   ~ 0
CAN_SEL
Wire Wire Line
	5900 4650 6300 4650
Connection ~ 6300 4650
$Comp
L pcdu-rescue:GND-power #PWR114
U 1 1 5988F659
P 7200 5250
AR Path="/598681C9/598773FA/5988F659" Ref="#PWR114"  Part="1" 
AR Path="/598681C9/5987B9DD/5988F659" Ref="#PWR124"  Part="1" 
F 0 "#PWR114" H 7200 5000 50  0001 C CNN
F 1 "GND" H 7200 5100 50  0000 C CNN
F 2 "" H 7200 5250 50  0000 C CNN
F 3 "" H 7200 5250 50  0000 C CNN
	1    7200 5250
	1    0    0    -1  
$EndComp
Text Label 3950 2350 0    60   ~ 0
CAN_SEL
$Comp
L pcdu-rescue:GND-power #PWR110
U 1 1 598904C9
P 2800 1750
AR Path="/598681C9/598773FA/598904C9" Ref="#PWR110"  Part="1" 
AR Path="/598681C9/5987B9DD/598904C9" Ref="#PWR120"  Part="1" 
F 0 "#PWR110" H 2800 1500 50  0001 C CNN
F 1 "GND" H 2800 1600 50  0000 C CNN
F 2 "" H 2800 1750 50  0000 C CNN
F 3 "" H 2800 1750 50  0000 C CNN
	1    2800 1750
	1    0    0    -1  
$EndComp
$Comp
L pcdu-rescue:R-Device R47
U 1 1 59890557
P 2800 1600
AR Path="/598681C9/598773FA/59890557" Ref="R47"  Part="1" 
AR Path="/598681C9/5987B9DD/59890557" Ref="R49"  Part="1" 
F 0 "R47" V 2880 1600 50  0000 C CNN
F 1 "1.5k" V 2800 1600 50  0000 C CNN
F 2 "" V 2730 1600 50  0000 C CNN
F 3 "" H 2800 1600 50  0000 C CNN
	1    2800 1600
	1    0    0    -1  
$EndComp
$Comp
L pcdu-rescue:R-Device R48
U 1 1 5989059A
P 4650 1650
AR Path="/598681C9/598773FA/5989059A" Ref="R48"  Part="1" 
AR Path="/598681C9/5987B9DD/5989059A" Ref="R50"  Part="1" 
F 0 "R48" V 4730 1650 50  0000 C CNN
F 1 "1.5k" V 4650 1650 50  0000 C CNN
F 2 "" V 4580 1650 50  0000 C CNN
F 3 "" H 4650 1650 50  0000 C CNN
	1    4650 1650
	1    0    0    -1  
$EndComp
$Comp
L pcdu-rescue:LED-Device D23
U 1 1 598905E1
P 2450 1450
AR Path="/598681C9/598773FA/598905E1" Ref="D23"  Part="1" 
AR Path="/598681C9/5987B9DD/598905E1" Ref="D25"  Part="1" 
F 0 "D23" H 2450 1550 50  0000 C CNN
F 1 "LED" H 2450 1350 50  0000 C CNN
F 2 "" H 2450 1450 50  0000 C CNN
F 3 "" H 2450 1450 50  0000 C CNN
	1    2450 1450
	-1   0    0    -1  
$EndComp
$Comp
L pcdu-rescue:LED-Device D24
U 1 1 59890630
P 4250 1500
AR Path="/598681C9/598773FA/59890630" Ref="D24"  Part="1" 
AR Path="/598681C9/5987B9DD/59890630" Ref="D26"  Part="1" 
F 0 "D24" H 4250 1600 50  0000 C CNN
F 1 "LED" H 4250 1400 50  0000 C CNN
F 2 "" H 4250 1500 50  0000 C CNN
F 3 "" H 4250 1500 50  0000 C CNN
	1    4250 1500
	-1   0    0    -1  
$EndComp
Wire Wire Line
	3750 2150 3750 1500
Wire Wire Line
	3750 1500 4050 1500
$Comp
L pcdu-rescue:C_Small-Device C56
U 1 1 59890CDB
P 1800 1550
AR Path="/598681C9/598773FA/59890CDB" Ref="C56"  Part="1" 
AR Path="/598681C9/5987B9DD/59890CDB" Ref="C58"  Part="1" 
F 0 "C56" H 1810 1620 50  0000 L CNN
F 1 "1uF" H 1810 1470 50  0000 L CNN
F 2 "Capacitors_SMD:C_0603" H 1800 1550 50  0001 C CNN
F 3 "" H 1800 1550 50  0000 C CNN
	1    1800 1550
	1    0    0    -1  
$EndComp
$Comp
L pcdu-rescue:GND-power #PWR109
U 1 1 59890D5D
P 1800 1650
AR Path="/598681C9/598773FA/59890D5D" Ref="#PWR109"  Part="1" 
AR Path="/598681C9/5987B9DD/59890D5D" Ref="#PWR119"  Part="1" 
F 0 "#PWR109" H 1800 1400 50  0001 C CNN
F 1 "GND" H 1800 1500 50  0000 C CNN
F 2 "" H 1800 1650 50  0000 C CNN
F 3 "" H 1800 1650 50  0000 C CNN
	1    1800 1650
	1    0    0    -1  
$EndComp
Text Label 4500 4750 0    60   ~ 0
+3.3V
Wire Wire Line
	4500 4750 4800 4750
Wire Wire Line
	4050 4850 4300 4850
Wire Wire Line
	3950 4950 4450 4950
Text Label 6950 4000 0    60   ~ 0
+3.3V
Wire Wire Line
	6950 4000 7300 4000
Wire Wire Line
	7300 4000 7300 4150
$Comp
L pcdu-rescue:SN65HVD231-mylib U29
U 1 1 5989530A
P 9300 3900
AR Path="/598681C9/598773FA/5989530A" Ref="U29"  Part="1" 
AR Path="/598681C9/5987B9DD/5989530A" Ref="U32"  Part="1" 
F 0 "U29" H 9300 3550 50  0000 C CNN
F 1 "SN65HVD231" H 9250 3450 50  0000 C CNN
F 2 "" H 9450 3650 60  0000 C CNN
F 3 "" H 9450 3650 60  0000 C CNN
	1    9300 3900
	1    0    0    -1  
$EndComp
$Comp
L pcdu-rescue:GND-power #PWR115
U 1 1 598956AF
P 8700 3800
AR Path="/598681C9/598773FA/598956AF" Ref="#PWR115"  Part="1" 
AR Path="/598681C9/5987B9DD/598956AF" Ref="#PWR125"  Part="1" 
F 0 "#PWR115" H 8700 3550 50  0001 C CNN
F 1 "GND" H 8700 3650 50  0000 C CNN
F 2 "" H 8700 3800 50  0000 C CNN
F 3 "" H 8700 3800 50  0000 C CNN
	1    8700 3800
	1    0    0    -1  
$EndComp
NoConn ~ 9900 4200
Wire Wire Line
	7650 4500 8150 4500
Wire Wire Line
	8150 4500 8150 3600
Wire Wire Line
	8150 3600 8700 3600
Wire Wire Line
	8250 4200 8250 4850
Wire Wire Line
	8250 4200 8700 4200
Wire Wire Line
	8300 4000 8700 4000
Text Label 8300 4000 0    60   ~ 0
+3.3V
Wire Wire Line
	9900 3800 10100 3800
Wire Wire Line
	9900 4000 10100 4000
Wire Wire Line
	10500 3600 9900 3600
Text Label 10000 3600 0    60   ~ 0
CAN_A_SLEEP
$Comp
L pcdu-rescue:SN65HVD231-mylib U30
U 1 1 59896BA5
P 9300 5350
AR Path="/598681C9/598773FA/59896BA5" Ref="U30"  Part="1" 
AR Path="/598681C9/5987B9DD/59896BA5" Ref="U33"  Part="1" 
F 0 "U30" H 9300 5000 50  0000 C CNN
F 1 "SN65HVD231" H 9250 4900 50  0000 C CNN
F 2 "" H 9450 5100 60  0000 C CNN
F 3 "" H 9450 5100 60  0000 C CNN
	1    9300 5350
	1    0    0    -1  
$EndComp
$Comp
L pcdu-rescue:GND-power #PWR116
U 1 1 59896BAB
P 8700 5250
AR Path="/598681C9/598773FA/59896BAB" Ref="#PWR116"  Part="1" 
AR Path="/598681C9/5987B9DD/59896BAB" Ref="#PWR126"  Part="1" 
F 0 "#PWR116" H 8700 5000 50  0001 C CNN
F 1 "GND" H 8700 5100 50  0000 C CNN
F 2 "" H 8700 5250 50  0000 C CNN
F 3 "" H 8700 5250 50  0000 C CNN
	1    8700 5250
	1    0    0    -1  
$EndComp
NoConn ~ 9900 5650
Wire Wire Line
	8150 5050 8700 5050
Wire Wire Line
	8250 5650 8700 5650
Wire Wire Line
	8300 5450 8700 5450
Text Label 8300 5450 0    60   ~ 0
+3.3V
Wire Wire Line
	9900 5250 10100 5250
Wire Wire Line
	9900 5450 10100 5450
Wire Wire Line
	10500 5050 9900 5050
Text Label 10000 5050 0    60   ~ 0
CAN_B_SLEEP
Wire Wire Line
	8250 4850 7650 4850
Wire Wire Line
	7650 4600 8150 4600
Wire Wire Line
	8150 4600 8150 5050
Wire Wire Line
	7650 4950 8250 4950
Wire Wire Line
	8250 4950 8250 5650
Text Label 3950 2250 0    60   ~ 0
CAN_A_SLEEP
Text Label 3950 2450 0    60   ~ 0
CAN_B_SLEEP
Wire Wire Line
	4000 2550 3600 2550
Wire Wire Line
	4000 2650 3600 2650
Wire Wire Line
	4000 2750 3600 2750
Wire Wire Line
	4000 2850 3600 2850
Wire Wire Line
	4000 3050 3600 3050
Wire Wire Line
	4450 1500 4650 1500
Wire Wire Line
	2650 1450 2800 1450
$Comp
L pcdu-rescue:Conn_01x04_Male-Connector J1
U 1 1 599055AC
P 5650 5700
AR Path="/598681C9/598773FA/599055AC" Ref="J1"  Part="1" 
AR Path="/598681C9/5987B9DD/599055AC" Ref="J2"  Part="1" 
F 0 "J1" H 5650 5950 50  0000 C CNN
F 1 "CONN_01X04" V 5750 5700 50  0000 C CNN
F 2 "" H 5650 5700 50  0001 C CNN
F 3 "" H 5650 5700 50  0001 C CNN
	1    5650 5700
	-1   0    0    1   
$EndComp
Text Label 5150 5500 0    60   ~ 0
+3.3V
Wire Wire Line
	5150 5500 5450 5500
$Comp
L pcdu-rescue:GND-power #PWR113
U 1 1 59905617
P 5450 5800
AR Path="/598681C9/598773FA/59905617" Ref="#PWR113"  Part="1" 
AR Path="/598681C9/5987B9DD/59905617" Ref="#PWR123"  Part="1" 
F 0 "#PWR113" H 5450 5550 50  0001 C CNN
F 1 "GND" H 5450 5650 50  0000 C CNN
F 2 "" H 5450 5800 50  0000 C CNN
F 3 "" H 5450 5800 50  0000 C CNN
	1    5450 5800
	1    0    0    -1  
$EndComp
Wire Wire Line
	4300 5700 5450 5700
Wire Wire Line
	5450 5600 4450 5600
Wire Wire Line
	4450 5600 4450 4950
Connection ~ 4450 4950
Wire Wire Line
	4050 4350 4050 4850
Wire Wire Line
	4300 5700 4300 4850
Connection ~ 4300 4850
Text Label 4550 4650 0    60   ~ 0
MISO
Text Label 4550 4850 0    60   ~ 0
SCK
Text Label 4550 4950 0    60   ~ 0
MOSI
Text Label 4550 5050 0    60   ~ 0
/RST
Wire Wire Line
	1300 5050 1300 5200
Wire Wire Line
	1300 2150 1400 2150
Wire Wire Line
	6300 4650 6300 4800
Wire Wire Line
	4450 4950 4800 4950
Wire Wire Line
	4300 4850 4800 4850
Wire Wire Line
	1400 1450 2250 1450
$EndSCHEMATC
