EESchema Schematic File Version 4
LIBS:pcdu-cache
EELAYER 29 0
EELAYER END
$Descr A4 11693 8268
encoding utf-8
Sheet 33 35
Title ""
Date ""
Rev ""
Comp "LibreCube"
Comment1 ""
Comment2 ""
Comment3 ""
Comment4 ""
$EndDescr
Text HLabel 2350 3700 0    60   Input ~ 0
SEL_PCDU_RT_A
Text HLabel 2350 2850 0    60   Input ~ 0
SEL_PCDU_RT_B
$Comp
L pcdu-rescue:74HC02-74xx U23
U 1 1 5985A285
P 3250 2950
F 0 "U23" H 3250 3000 50  0000 C CNN
F 1 "74HC02" H 3300 2900 50  0000 C CNN
F 2 "" H 3250 2950 50  0000 C CNN
F 3 "" H 3250 2950 50  0000 C CNN
	1    3250 2950
	1    0    0    -1  
$EndComp
$Comp
L pcdu-rescue:TS5A3160DBV-Analog_Switch U26
U 1 1 5985A744
P 5150 3050
F 0 "U26" H 5050 3375 50  0000 R CNN
F 1 "TS5A3160" H 5050 3300 50  0000 R CNN
F 2 "" H 5200 2800 50  0000 L CNN
F 3 "" H 5250 3050 50  0000 C CNN
	1    5150 3050
	-1   0    0    -1  
$EndComp
Text HLabel 9700 3150 2    60   Input ~ 0
CAN_A_H
Text HLabel 9700 3050 2    60   Input ~ 0
CAN_A_L
Text HLabel 9700 3400 2    60   Input ~ 0
CAN_B_H
Text HLabel 9700 3300 2    60   Input ~ 0
CAN_B_L
$Comp
L pcdu-rescue:74HC02--pcdu-rescue U23
U 2 1 5986F444
P 3250 3600
F 0 "U23" H 3250 3650 50  0000 C CNN
F 1 "74HC02" H 3300 3550 50  0000 C CNN
F 2 "" H 3250 3600 50  0000 C CNN
F 3 "" H 3250 3600 50  0000 C CNN
	2    3250 3600
	1    0    0    -1  
$EndComp
Wire Wire Line
	2650 3500 2650 3300
Wire Wire Line
	2650 3300 3850 3300
Wire Wire Line
	3850 3300 3850 2950
Wire Wire Line
	2650 3050 2650 3250
Wire Wire Line
	2650 3250 3950 3250
Wire Wire Line
	3950 3250 3950 3600
Wire Wire Line
	3950 3600 3850 3600
Wire Wire Line
	3850 2950 4100 2950
$Comp
L pcdu-rescue:D-Device D21
U 1 1 5986F54A
P 4250 2950
F 0 "D21" H 4250 3050 50  0000 C CNN
F 1 "D" H 4250 2850 50  0000 C CNN
F 2 "" H 4250 2950 50  0000 C CNN
F 3 "" H 4250 2950 50  0000 C CNN
	1    4250 2950
	-1   0    0    1   
$EndComp
$Comp
L pcdu-rescue:74HC02--pcdu-rescue U23
U 3 1 5986F65F
P 3250 4150
F 0 "U23" H 3250 4200 50  0000 C CNN
F 1 "74HC02" H 3300 4100 50  0000 C CNN
F 2 "" H 3250 4150 50  0000 C CNN
F 3 "" H 3250 4150 50  0000 C CNN
	3    3250 4150
	1    0    0    -1  
$EndComp
$Comp
L pcdu-rescue:74HC02--pcdu-rescue U23
U 4 1 5986F665
P 3250 4800
F 0 "U23" H 3250 4850 50  0000 C CNN
F 1 "74HC02" H 3300 4750 50  0000 C CNN
F 2 "" H 3250 4800 50  0000 C CNN
F 3 "" H 3250 4800 50  0000 C CNN
	4    3250 4800
	1    0    0    -1  
$EndComp
Wire Wire Line
	2650 4500 3850 4500
Wire Wire Line
	3850 4500 3850 4150
Wire Wire Line
	2650 4450 3950 4450
Wire Wire Line
	3950 4450 3950 4800
Wire Wire Line
	3950 4800 3850 4800
Wire Wire Line
	3850 4150 4100 4150
$Comp
L pcdu-rescue:D-Device D22
U 1 1 5986F671
P 4250 4150
F 0 "D22" H 4250 4250 50  0000 C CNN
F 1 "D" H 4250 4050 50  0000 C CNN
F 2 "" H 4250 4150 50  0000 C CNN
F 3 "" H 4250 4150 50  0000 C CNN
	1    4250 4150
	-1   0    0    1   
$EndComp
Wire Wire Line
	2350 2850 2550 2850
Wire Wire Line
	2550 2850 2550 4050
Wire Wire Line
	2550 4050 2650 4050
Connection ~ 2550 2850
Wire Wire Line
	2350 3700 2500 3700
Wire Wire Line
	2500 3700 2500 4900
Wire Wire Line
	2500 4900 2650 4900
Connection ~ 2500 3700
Wire Wire Line
	2650 4250 2650 4450
Wire Wire Line
	2650 4500 2650 4700
Wire Wire Line
	4400 2950 4400 3050
$Comp
L pcdu-rescue:TS5A3160DBV-Analog_Switch U27
U 1 1 59876C8E
P 5150 4050
F 0 "U27" H 5050 4375 50  0000 R CNN
F 1 "TS5A3160" H 5050 4300 50  0000 R CNN
F 2 "" H 5200 3800 50  0000 L CNN
F 3 "" H 5250 4050 50  0000 C CNN
	1    5150 4050
	-1   0    0    -1  
$EndComp
$Comp
L pcdu-rescue:GND-power #PWR105
U 1 1 59876CE8
P 5150 3450
F 0 "#PWR105" H 5150 3200 50  0001 C CNN
F 1 "GND" H 5150 3300 50  0000 C CNN
F 2 "" H 5150 3450 50  0000 C CNN
F 3 "" H 5150 3450 50  0000 C CNN
	1    5150 3450
	1    0    0    -1  
$EndComp
$Comp
L pcdu-rescue:GND-power #PWR106
U 1 1 59876D0C
P 5150 4450
F 0 "#PWR106" H 5150 4200 50  0001 C CNN
F 1 "GND" H 5150 4300 50  0000 C CNN
F 2 "" H 5150 4450 50  0000 C CNN
F 3 "" H 5150 4450 50  0000 C CNN
	1    5150 4450
	1    0    0    -1  
$EndComp
Wire Wire Line
	5650 4050 5900 4050
Wire Wire Line
	5900 4050 5900 3050
Wire Wire Line
	5650 3050 5900 3050
Wire Wire Line
	5650 4250 6050 4250
Wire Wire Line
	6050 4250 6050 3250
Wire Wire Line
	5650 3250 6050 3250
Connection ~ 6050 3250
Connection ~ 5900 3050
Text Label 6200 3050 0    60   ~ 0
PWR_PCDU_RT_A
Text Label 6200 3250 0    60   ~ 0
PWR_PCDU_RT_B
Wire Wire Line
	4850 3050 4400 3050
Connection ~ 4400 3050
Wire Wire Line
	4850 4050 4400 4050
Connection ~ 4400 4050
$Sheet
S 7400 2900 1150 1250
U 598773FA
F0 "rt_a" 60
F1 "rt.sch" 60
F2 "PWR_IN" I L 7400 3050 60 
F3 "CAN_A_L" I R 8550 3050 60 
F4 "CAN_A_H" I R 8550 3150 60 
F5 "CAN_B_L" I R 8550 3300 60 
F6 "CAN_B_H" I R 8550 3400 60 
F7 "LCL1_ON" I R 8550 3650 60 
F8 "LCL2_ON" I R 8550 3750 60 
F9 "LCL3_ON" I R 8550 3850 60 
F10 "LCL4_ON" I R 8550 3950 60 
F11 "LCL5_ON" I R 8550 4050 60 
$EndSheet
Wire Wire Line
	8550 3050 8800 3050
Wire Wire Line
	8550 3150 8900 3150
Wire Wire Line
	8550 3300 9000 3300
Wire Wire Line
	8550 3400 9100 3400
Wire Wire Line
	4700 3250 4850 3250
Wire Wire Line
	4700 900  4700 1000
Wire Wire Line
	5250 2850 4700 2850
Connection ~ 4700 2850
Wire Wire Line
	4700 4250 4850 4250
Connection ~ 4700 3250
Wire Wire Line
	5250 3850 4700 3850
Connection ~ 4700 3850
$Comp
L pcdu-rescue:TC1262-33-Regulator_Linear U25
U 1 1 5987867E
P 3900 1950
F 0 "U25" H 3900 2275 50  0000 C CNN
F 1 "TC1262-33VDB" H 3900 2200 50  0000 C CNN
F 2 "SOT-223" H 3950 1700 50  0001 L CIN
F 3 "" H 3900 1750 50  0001 C CNN
	1    3900 1950
	1    0    0    -1  
$EndComp
$Comp
L pcdu-rescue:GND-power #PWR101
U 1 1 5987878E
P 3900 2250
F 0 "#PWR101" H 3900 2000 50  0001 C CNN
F 1 "GND" H 3900 2100 50  0000 C CNN
F 2 "" H 3900 2250 50  0000 C CNN
F 3 "" H 3900 2250 50  0000 C CNN
	1    3900 2250
	1    0    0    -1  
$EndComp
$Comp
L pcdu-rescue:C-Device C54
U 1 1 598787CB
P 4400 2100
F 0 "C54" H 4425 2200 50  0000 L CNN
F 1 "1uF" H 4425 2000 50  0000 L CNN
F 2 "" H 4438 1950 50  0000 C CNN
F 3 "" H 4400 2100 50  0000 C CNN
	1    4400 2100
	1    0    0    -1  
$EndComp
$Comp
L pcdu-rescue:GND-power #PWR103
U 1 1 59878852
P 4400 2250
F 0 "#PWR103" H 4400 2000 50  0001 C CNN
F 1 "GND" H 4400 2100 50  0000 C CNN
F 2 "" H 4400 2250 50  0000 C CNN
F 3 "" H 4400 2250 50  0000 C CNN
	1    4400 2250
	1    0    0    -1  
$EndComp
$Comp
L pcdu-rescue:+5V-power #PWR99
U 1 1 598788D9
P 3600 1950
F 0 "#PWR99" H 3600 1800 50  0001 C CNN
F 1 "+5V" H 3600 2090 50  0000 C CNN
F 2 "" H 3600 1950 50  0000 C CNN
F 3 "" H 3600 1950 50  0000 C CNN
	1    3600 1950
	1    0    0    -1  
$EndComp
$Comp
L pcdu-rescue:+3.3V-power #PWR104
U 1 1 59878AE1
P 4700 900
F 0 "#PWR104" H 4700 750 50  0001 C CNN
F 1 "+3.3V" H 4700 1040 50  0000 C CNN
F 2 "" H 4700 900 50  0000 C CNN
F 3 "" H 4700 900 50  0000 C CNN
	1    4700 900 
	1    0    0    -1  
$EndComp
$Comp
L pcdu-rescue:PWR_FLAG-power #FLG26
U 1 1 59878B72
P 5200 1000
F 0 "#FLG26" H 5200 1095 50  0001 C CNN
F 1 "PWR_FLAG" H 5200 1180 50  0000 C CNN
F 2 "" H 5200 1000 50  0000 C CNN
F 3 "" H 5200 1000 50  0000 C CNN
	1    5200 1000
	1    0    0    -1  
$EndComp
Connection ~ 8800 3050
Connection ~ 8900 3150
Connection ~ 9000 3300
Connection ~ 9100 3400
Text HLabel 9700 3750 2    60   Input ~ 0
LCL2_ON
Text HLabel 9700 3650 2    60   Input ~ 0
LCL1_ON
Text HLabel 9700 3950 2    60   Input ~ 0
LCL4_ON
Text HLabel 9700 3850 2    60   Input ~ 0
LCL3_ON
Text HLabel 9700 4050 2    60   Input ~ 0
LCL5_ON
Wire Wire Line
	8550 3650 9200 3650
Wire Wire Line
	8550 3750 9250 3750
Wire Wire Line
	8550 3850 9300 3850
Wire Wire Line
	8550 3950 9350 3950
Wire Wire Line
	8550 4050 9400 4050
$Sheet
S 7400 4350 1150 1250
U 5987B9DD
F0 "rt_b" 60
F1 "rt.sch" 60
F2 "PWR_IN" I L 7400 4500 60 
F3 "CAN_A_L" I R 8550 4500 60 
F4 "CAN_A_H" I R 8550 4600 60 
F5 "CAN_B_L" I R 8550 4750 60 
F6 "CAN_B_H" I R 8550 4850 60 
F7 "LCL1_ON" I R 8550 5100 60 
F8 "LCL2_ON" I R 8550 5200 60 
F9 "LCL3_ON" I R 8550 5300 60 
F10 "LCL4_ON" I R 8550 5400 60 
F11 "LCL5_ON" I R 8550 5500 60 
$EndSheet
Wire Wire Line
	7200 3250 7200 4500
Wire Wire Line
	7200 4500 7400 4500
Wire Wire Line
	8550 4500 8800 4500
Wire Wire Line
	8800 4500 8800 3050
Wire Wire Line
	8550 4600 8900 4600
Wire Wire Line
	8900 4600 8900 3150
Wire Wire Line
	8550 4750 9000 4750
Wire Wire Line
	9000 4750 9000 3300
Wire Wire Line
	8550 4850 9100 4850
Wire Wire Line
	9100 4850 9100 3400
Wire Wire Line
	8550 5100 9200 5100
Wire Wire Line
	9200 5100 9200 3650
Connection ~ 9200 3650
Wire Wire Line
	8550 5200 9250 5200
Wire Wire Line
	9250 5200 9250 3750
Connection ~ 9250 3750
Wire Wire Line
	8550 5300 9300 5300
Wire Wire Line
	9300 5300 9300 3850
Connection ~ 9300 3850
Wire Wire Line
	8550 5400 9350 5400
Wire Wire Line
	9350 5400 9350 3950
Connection ~ 9350 3950
Wire Wire Line
	8550 5500 9400 5500
Wire Wire Line
	9400 5500 9400 4050
Connection ~ 9400 4050
$Comp
L pcdu-rescue:TC1262-33-Regulator_Linear U24
U 1 1 598DE8A5
P 3900 1000
F 0 "U24" H 3900 1325 50  0000 C CNN
F 1 "TC1262-33VDB" H 3900 1250 50  0000 C CNN
F 2 "SOT-223" H 3950 750 50  0001 L CIN
F 3 "" H 3900 800 50  0001 C CNN
	1    3900 1000
	1    0    0    -1  
$EndComp
Connection ~ 4700 1950
Connection ~ 4700 1000
$Comp
L pcdu-rescue:C-Device C53
U 1 1 598DEBB5
P 4400 1150
F 0 "C53" H 4425 1250 50  0000 L CNN
F 1 "1uF" H 4425 1050 50  0000 L CNN
F 2 "" H 4438 1000 50  0000 C CNN
F 3 "" H 4400 1150 50  0000 C CNN
	1    4400 1150
	1    0    0    -1  
$EndComp
$Comp
L pcdu-rescue:GND-power #PWR102
U 1 1 598DEE79
P 4400 1300
F 0 "#PWR102" H 4400 1050 50  0001 C CNN
F 1 "GND" H 4400 1150 50  0000 C CNN
F 2 "" H 4400 1300 50  0000 C CNN
F 3 "" H 4400 1300 50  0000 C CNN
	1    4400 1300
	1    0    0    -1  
$EndComp
$Comp
L pcdu-rescue:GND-power #PWR100
U 1 1 598DEF20
P 3900 1300
F 0 "#PWR100" H 3900 1050 50  0001 C CNN
F 1 "GND" H 3900 1150 50  0000 C CNN
F 2 "" H 3900 1300 50  0000 C CNN
F 3 "" H 3900 1300 50  0000 C CNN
	1    3900 1300
	1    0    0    -1  
$EndComp
$Comp
L pcdu-rescue:+5V-power #PWR98
U 1 1 598DEFC7
P 3600 1000
F 0 "#PWR98" H 3600 850 50  0001 C CNN
F 1 "+5V" H 3600 1140 50  0000 C CNN
F 2 "" H 3600 1000 50  0000 C CNN
F 3 "" H 3600 1000 50  0000 C CNN
	1    3600 1000
	1    0    0    -1  
$EndComp
Wire Wire Line
	2550 2850 2650 2850
Wire Wire Line
	2500 3700 2650 3700
Wire Wire Line
	6050 3250 7200 3250
Wire Wire Line
	5900 3050 7400 3050
Wire Wire Line
	4400 3050 4400 4050
Wire Wire Line
	4400 4050 4400 4150
Wire Wire Line
	4700 2850 4700 3250
Wire Wire Line
	4700 3250 4700 3850
Wire Wire Line
	4700 3850 4700 4250
Wire Wire Line
	8800 3050 9700 3050
Wire Wire Line
	8900 3150 9700 3150
Wire Wire Line
	9000 3300 9700 3300
Wire Wire Line
	9100 3400 9700 3400
Wire Wire Line
	9200 3650 9700 3650
Wire Wire Line
	9250 3750 9700 3750
Wire Wire Line
	9300 3850 9700 3850
Wire Wire Line
	9350 3950 9700 3950
Wire Wire Line
	9400 4050 9700 4050
Wire Wire Line
	4700 1950 4700 2850
Wire Wire Line
	4700 1000 4700 1950
Wire Wire Line
	4700 1000 5200 1000
Wire Wire Line
	4200 1950 4700 1950
Wire Wire Line
	4200 1000 4700 1000
$EndSCHEMATC
