EESchema Schematic File Version 4
LIBS:pcdu-cache
EELAYER 29 0
EELAYER END
$Descr A4 11693 8268
encoding utf-8
Sheet 7 35
Title ""
Date ""
Rev ""
Comp "LibreCube"
Comment1 ""
Comment2 ""
Comment3 ""
Comment4 ""
$EndDescr
$Comp
L pcdu-rescue:TPS2034-mylib U5
U 1 1 5983DF0C
P 5700 3450
AR Path="/5981D798/5983DD90/5983DF0C" Ref="U5"  Part="1" 
AR Path="/5981D798/5983E4FD/5983DF0C" Ref="U6"  Part="1" 
AR Path="/59824968/5983F4B3/5983DF0C" Ref="U8"  Part="1" 
AR Path="/59824968/5983F7D4/5983DF0C" Ref="U9"  Part="1" 
AR Path="/5982788E/5983F4B3/5983DF0C" Ref="U10"  Part="1" 
AR Path="/5982788E/5983F7D4/5983DF0C" Ref="U11"  Part="1" 
AR Path="/59829749/59842ECB/5983DF0C" Ref="U12"  Part="1" 
AR Path="/59829749/59842FE8/5983DF0C" Ref="U13"  Part="1" 
AR Path="/59841F95/59842ECB/5983DF0C" Ref="U15"  Part="1" 
AR Path="/59841F95/59842FE8/5983DF0C" Ref="U16"  Part="1" 
AR Path="/59845D4E/59842ECB/5983DF0C" Ref="U17"  Part="1" 
AR Path="/59845D4E/59842FE8/5983DF0C" Ref="U18"  Part="1" 
AR Path="/59845ED6/59842ECB/5983DF0C" Ref="U19"  Part="1" 
AR Path="/59845ED6/59842FE8/5983DF0C" Ref="U20"  Part="1" 
AR Path="/59846013/59842ECB/5983DF0C" Ref="U21"  Part="1" 
AR Path="/59846013/59842FE8/5983DF0C" Ref="U22"  Part="1" 
F 0 "U5" H 5700 3100 50  0000 C CNN
F 1 "TPS2034" H 5400 3000 50  0000 C CNN
F 2 "" H 5700 3200 60  0000 C CNN
F 3 "" H 5700 3200 60  0000 C CNN
	1    5700 3450
	1    0    0    -1  
$EndComp
Text HLabel 7300 3150 2    60   Output ~ 0
OUT
Text HLabel 3600 3350 0    60   Input ~ 0
IN
Text HLabel 3600 4000 0    60   Input ~ 0
EN
$Comp
L pcdu-rescue:GND-power #PWR37
U 1 1 5983DF47
P 5100 3150
AR Path="/5981D798/5983DD90/5983DF47" Ref="#PWR37"  Part="1" 
AR Path="/5981D798/5983E4FD/5983DF47" Ref="#PWR40"  Part="1" 
AR Path="/59824968/5983F4B3/5983DF47" Ref="#PWR47"  Part="1" 
AR Path="/59824968/5983F7D4/5983DF47" Ref="#PWR50"  Part="1" 
AR Path="/5982788E/5983F4B3/5983DF47" Ref="#PWR53"  Part="1" 
AR Path="/5982788E/5983F7D4/5983DF47" Ref="#PWR56"  Part="1" 
AR Path="/59829749/59842ECB/5983DF47" Ref="#PWR59"  Part="1" 
AR Path="/59829749/59842FE8/5983DF47" Ref="#PWR62"  Part="1" 
AR Path="/59841F95/59842ECB/5983DF47" Ref="#PWR69"  Part="1" 
AR Path="/59841F95/59842FE8/5983DF47" Ref="#PWR72"  Part="1" 
AR Path="/59845D4E/59842ECB/5983DF47" Ref="#PWR75"  Part="1" 
AR Path="/59845D4E/59842FE8/5983DF47" Ref="#PWR78"  Part="1" 
AR Path="/59845ED6/59842ECB/5983DF47" Ref="#PWR81"  Part="1" 
AR Path="/59845ED6/59842FE8/5983DF47" Ref="#PWR84"  Part="1" 
AR Path="/59846013/59842ECB/5983DF47" Ref="#PWR87"  Part="1" 
AR Path="/59846013/59842FE8/5983DF47" Ref="#PWR90"  Part="1" 
F 0 "#PWR37" H 5100 2900 50  0001 C CNN
F 1 "GND" H 5100 3000 50  0000 C CNN
F 2 "" H 5100 3150 50  0000 C CNN
F 3 "" H 5100 3150 50  0000 C CNN
	1    5100 3150
	1    0    0    -1  
$EndComp
Wire Wire Line
	6700 3550 6300 3550
Wire Wire Line
	6700 3150 6700 3350
Wire Wire Line
	6300 3150 6700 3150
Connection ~ 6700 3150
Wire Wire Line
	6300 3350 6700 3350
Connection ~ 6700 3350
$Comp
L pcdu-rescue:C-Device C15
U 1 1 5983DF7F
P 4300 3500
AR Path="/5981D798/5983DD90/5983DF7F" Ref="C15"  Part="1" 
AR Path="/5981D798/5983E4FD/5983DF7F" Ref="C17"  Part="1" 
AR Path="/59824968/5983F4B3/5983DF7F" Ref="C22"  Part="1" 
AR Path="/59824968/5983F7D4/5983DF7F" Ref="C24"  Part="1" 
AR Path="/5982788E/5983F4B3/5983DF7F" Ref="C26"  Part="1" 
AR Path="/5982788E/5983F7D4/5983DF7F" Ref="C28"  Part="1" 
AR Path="/59829749/59842ECB/5983DF7F" Ref="C30"  Part="1" 
AR Path="/59829749/59842FE8/5983DF7F" Ref="C32"  Part="1" 
AR Path="/59841F95/59842ECB/5983DF7F" Ref="C37"  Part="1" 
AR Path="/59841F95/59842FE8/5983DF7F" Ref="C39"  Part="1" 
AR Path="/59845D4E/59842ECB/5983DF7F" Ref="C41"  Part="1" 
AR Path="/59845D4E/59842FE8/5983DF7F" Ref="C43"  Part="1" 
AR Path="/59845ED6/59842ECB/5983DF7F" Ref="C45"  Part="1" 
AR Path="/59845ED6/59842FE8/5983DF7F" Ref="C47"  Part="1" 
AR Path="/59846013/59842ECB/5983DF7F" Ref="C49"  Part="1" 
AR Path="/59846013/59842FE8/5983DF7F" Ref="C51"  Part="1" 
F 0 "C15" H 4325 3600 50  0000 L CNN
F 1 "0.1uF" H 4325 3400 50  0000 L CNN
F 2 "" H 4338 3350 50  0000 C CNN
F 3 "" H 4300 3500 50  0000 C CNN
	1    4300 3500
	1    0    0    -1  
$EndComp
Wire Wire Line
	5100 3550 4700 3550
Wire Wire Line
	4700 3350 4700 3550
Connection ~ 4700 3350
$Comp
L pcdu-rescue:GND-power #PWR36
U 1 1 5983DFE1
P 4300 3650
AR Path="/5981D798/5983DD90/5983DFE1" Ref="#PWR36"  Part="1" 
AR Path="/5981D798/5983E4FD/5983DFE1" Ref="#PWR39"  Part="1" 
AR Path="/59824968/5983F4B3/5983DFE1" Ref="#PWR46"  Part="1" 
AR Path="/59824968/5983F7D4/5983DFE1" Ref="#PWR49"  Part="1" 
AR Path="/5982788E/5983F4B3/5983DFE1" Ref="#PWR52"  Part="1" 
AR Path="/5982788E/5983F7D4/5983DFE1" Ref="#PWR55"  Part="1" 
AR Path="/59829749/59842ECB/5983DFE1" Ref="#PWR58"  Part="1" 
AR Path="/59829749/59842FE8/5983DFE1" Ref="#PWR61"  Part="1" 
AR Path="/59841F95/59842ECB/5983DFE1" Ref="#PWR68"  Part="1" 
AR Path="/59841F95/59842FE8/5983DFE1" Ref="#PWR71"  Part="1" 
AR Path="/59845D4E/59842ECB/5983DFE1" Ref="#PWR74"  Part="1" 
AR Path="/59845D4E/59842FE8/5983DFE1" Ref="#PWR77"  Part="1" 
AR Path="/59845ED6/59842ECB/5983DFE1" Ref="#PWR80"  Part="1" 
AR Path="/59845ED6/59842FE8/5983DFE1" Ref="#PWR83"  Part="1" 
AR Path="/59846013/59842ECB/5983DFE1" Ref="#PWR86"  Part="1" 
AR Path="/59846013/59842FE8/5983DFE1" Ref="#PWR89"  Part="1" 
F 0 "#PWR36" H 4300 3400 50  0001 C CNN
F 1 "GND" H 4300 3500 50  0000 C CNN
F 2 "" H 4300 3650 50  0000 C CNN
F 3 "" H 4300 3650 50  0000 C CNN
	1    4300 3650
	1    0    0    -1  
$EndComp
Wire Wire Line
	5100 4000 5100 3750
Wire Wire Line
	3600 4000 3800 4000
$Comp
L pcdu-rescue:R-Device R15
U 1 1 5983E013
P 3800 3500
AR Path="/5981D798/5983DD90/5983E013" Ref="R15"  Part="1" 
AR Path="/5981D798/5983E4FD/5983E013" Ref="R17"  Part="1" 
AR Path="/59824968/5983F4B3/5983E013" Ref="R19"  Part="1" 
AR Path="/59824968/5983F7D4/5983E013" Ref="R21"  Part="1" 
AR Path="/5982788E/5983F4B3/5983E013" Ref="R23"  Part="1" 
AR Path="/5982788E/5983F7D4/5983E013" Ref="R25"  Part="1" 
AR Path="/59829749/59842ECB/5983E013" Ref="R27"  Part="1" 
AR Path="/59829749/59842FE8/5983E013" Ref="R29"  Part="1" 
AR Path="/59841F95/59842ECB/5983E013" Ref="R31"  Part="1" 
AR Path="/59841F95/59842FE8/5983E013" Ref="R33"  Part="1" 
AR Path="/59845D4E/59842ECB/5983E013" Ref="R35"  Part="1" 
AR Path="/59845D4E/59842FE8/5983E013" Ref="R37"  Part="1" 
AR Path="/59845ED6/59842ECB/5983E013" Ref="R39"  Part="1" 
AR Path="/59845ED6/59842FE8/5983E013" Ref="R41"  Part="1" 
AR Path="/59846013/59842ECB/5983E013" Ref="R43"  Part="1" 
AR Path="/59846013/59842FE8/5983E013" Ref="R45"  Part="1" 
F 0 "R15" V 3880 3500 50  0000 C CNN
F 1 "1M" V 3800 3500 50  0000 C CNN
F 2 "" V 3730 3500 50  0000 C CNN
F 3 "" H 3800 3500 50  0000 C CNN
	1    3800 3500
	1    0    0    -1  
$EndComp
Wire Wire Line
	3800 3650 3800 4000
Connection ~ 3800 4000
$Comp
L pcdu-rescue:PWR_FLAG-power #FLG8
U 1 1 5985F270
P 4050 3350
AR Path="/5981D798/5983DD90/5985F270" Ref="#FLG8"  Part="1" 
AR Path="/5981D798/5983E4FD/5985F270" Ref="#FLG9"  Part="1" 
AR Path="/59824968/5983F4B3/5985F270" Ref="#FLG11"  Part="1" 
AR Path="/59824968/5983F7D4/5985F270" Ref="#FLG12"  Part="1" 
AR Path="/5982788E/5983F4B3/5985F270" Ref="#FLG13"  Part="1" 
AR Path="/5982788E/5983F7D4/5985F270" Ref="#FLG14"  Part="1" 
AR Path="/59829749/59842ECB/5985F270" Ref="#FLG15"  Part="1" 
AR Path="/59829749/59842FE8/5985F270" Ref="#FLG16"  Part="1" 
AR Path="/59841F95/59842ECB/5985F270" Ref="#FLG18"  Part="1" 
AR Path="/59841F95/59842FE8/5985F270" Ref="#FLG19"  Part="1" 
AR Path="/59845D4E/59842ECB/5985F270" Ref="#FLG20"  Part="1" 
AR Path="/59845D4E/59842FE8/5985F270" Ref="#FLG21"  Part="1" 
AR Path="/59845ED6/59842ECB/5985F270" Ref="#FLG22"  Part="1" 
AR Path="/59845ED6/59842FE8/5985F270" Ref="#FLG23"  Part="1" 
AR Path="/59846013/59842ECB/5985F270" Ref="#FLG24"  Part="1" 
AR Path="/59846013/59842FE8/5985F270" Ref="#FLG25"  Part="1" 
F 0 "#FLG8" H 4050 3445 50  0001 C CNN
F 1 "PWR_FLAG" H 4050 3530 50  0000 C CNN
F 2 "" H 4050 3350 50  0000 C CNN
F 3 "" H 4050 3350 50  0000 C CNN
	1    4050 3350
	1    0    0    -1  
$EndComp
$Comp
L pcdu-rescue:C-Device C16
U 1 1 598BF802
P 7000 3300
AR Path="/5981D798/5983DD90/598BF802" Ref="C16"  Part="1" 
AR Path="/5981D798/5983E4FD/598BF802" Ref="C18"  Part="1" 
AR Path="/59824968/5983F4B3/598BF802" Ref="C23"  Part="1" 
AR Path="/59824968/5983F7D4/598BF802" Ref="C25"  Part="1" 
AR Path="/5982788E/5983F4B3/598BF802" Ref="C27"  Part="1" 
AR Path="/5982788E/5983F7D4/598BF802" Ref="C29"  Part="1" 
AR Path="/59829749/59842ECB/598BF802" Ref="C31"  Part="1" 
AR Path="/59829749/59842FE8/598BF802" Ref="C33"  Part="1" 
AR Path="/59841F95/59842ECB/598BF802" Ref="C38"  Part="1" 
AR Path="/59841F95/59842FE8/598BF802" Ref="C40"  Part="1" 
AR Path="/59845D4E/59842ECB/598BF802" Ref="C42"  Part="1" 
AR Path="/59845D4E/59842FE8/598BF802" Ref="C44"  Part="1" 
AR Path="/59845ED6/59842ECB/598BF802" Ref="C46"  Part="1" 
AR Path="/59845ED6/59842FE8/598BF802" Ref="C48"  Part="1" 
AR Path="/59846013/59842ECB/598BF802" Ref="C50"  Part="1" 
AR Path="/59846013/59842FE8/598BF802" Ref="C52"  Part="1" 
F 0 "C16" H 7025 3400 50  0000 L CNN
F 1 "0.1uF" H 7025 3200 50  0000 L CNN
F 2 "" H 7038 3150 50  0000 C CNN
F 3 "" H 7000 3300 50  0000 C CNN
	1    7000 3300
	1    0    0    -1  
$EndComp
$Comp
L pcdu-rescue:GND-power #PWR38
U 1 1 598BF857
P 7000 3450
AR Path="/5981D798/5983DD90/598BF857" Ref="#PWR38"  Part="1" 
AR Path="/5981D798/5983E4FD/598BF857" Ref="#PWR41"  Part="1" 
AR Path="/59824968/5983F4B3/598BF857" Ref="#PWR48"  Part="1" 
AR Path="/59824968/5983F7D4/598BF857" Ref="#PWR51"  Part="1" 
AR Path="/5982788E/5983F4B3/598BF857" Ref="#PWR54"  Part="1" 
AR Path="/5982788E/5983F7D4/598BF857" Ref="#PWR57"  Part="1" 
AR Path="/59829749/59842ECB/598BF857" Ref="#PWR60"  Part="1" 
AR Path="/59829749/59842FE8/598BF857" Ref="#PWR63"  Part="1" 
AR Path="/59841F95/59842ECB/598BF857" Ref="#PWR70"  Part="1" 
AR Path="/59841F95/59842FE8/598BF857" Ref="#PWR73"  Part="1" 
AR Path="/59845D4E/59842ECB/598BF857" Ref="#PWR76"  Part="1" 
AR Path="/59845D4E/59842FE8/598BF857" Ref="#PWR79"  Part="1" 
AR Path="/59845ED6/59842ECB/598BF857" Ref="#PWR82"  Part="1" 
AR Path="/59845ED6/59842FE8/598BF857" Ref="#PWR85"  Part="1" 
AR Path="/59846013/59842ECB/598BF857" Ref="#PWR88"  Part="1" 
AR Path="/59846013/59842FE8/598BF857" Ref="#PWR91"  Part="1" 
F 0 "#PWR38" H 7000 3200 50  0001 C CNN
F 1 "GND" H 7000 3300 50  0000 C CNN
F 2 "" H 7000 3450 50  0000 C CNN
F 3 "" H 7000 3450 50  0000 C CNN
	1    7000 3450
	1    0    0    -1  
$EndComp
$Comp
L pcdu-rescue:R-Device R16
U 1 1 598BF86E
P 6650 4050
AR Path="/5981D798/5983DD90/598BF86E" Ref="R16"  Part="1" 
AR Path="/5981D798/5983E4FD/598BF86E" Ref="R18"  Part="1" 
AR Path="/59824968/5983F4B3/598BF86E" Ref="R20"  Part="1" 
AR Path="/59824968/5983F7D4/598BF86E" Ref="R22"  Part="1" 
AR Path="/5982788E/5983F4B3/598BF86E" Ref="R24"  Part="1" 
AR Path="/5982788E/5983F7D4/598BF86E" Ref="R26"  Part="1" 
AR Path="/59829749/59842ECB/598BF86E" Ref="R28"  Part="1" 
AR Path="/59829749/59842FE8/598BF86E" Ref="R30"  Part="1" 
AR Path="/59841F95/59842ECB/598BF86E" Ref="R32"  Part="1" 
AR Path="/59841F95/59842FE8/598BF86E" Ref="R34"  Part="1" 
AR Path="/59845D4E/59842ECB/598BF86E" Ref="R36"  Part="1" 
AR Path="/59845D4E/59842FE8/598BF86E" Ref="R38"  Part="1" 
AR Path="/59845ED6/59842ECB/598BF86E" Ref="R40"  Part="1" 
AR Path="/59845ED6/59842FE8/598BF86E" Ref="R42"  Part="1" 
AR Path="/59846013/59842ECB/598BF86E" Ref="R44"  Part="1" 
AR Path="/59846013/59842FE8/598BF86E" Ref="R46"  Part="1" 
F 0 "R16" V 6730 4050 50  0000 C CNN
F 1 "10k" V 6650 4050 50  0000 C CNN
F 2 "" V 6580 4050 50  0000 C CNN
F 3 "" H 6650 4050 50  0000 C CNN
	1    6650 4050
	1    0    0    -1  
$EndComp
Text HLabel 7300 3750 2    60   Output ~ 0
/OC
Wire Wire Line
	4700 4200 6650 4200
Connection ~ 4700 3550
Wire Wire Line
	6650 3900 6650 3750
Wire Wire Line
	6300 3750 6650 3750
Connection ~ 6650 3750
Wire Wire Line
	6700 3350 6700 3550
Wire Wire Line
	4700 3350 5100 3350
Wire Wire Line
	3800 4000 5100 4000
Wire Wire Line
	4700 3550 4700 4200
Wire Wire Line
	6650 3750 7300 3750
Wire Wire Line
	6700 3150 7300 3150
Wire Wire Line
	3600 3350 4700 3350
$EndSCHEMATC
